%YAML 1.1
%TAG !u! tag:unity3d.com,2011:
--- !u!1001 &784404901877241257
PrefabInstance:
  m_ObjectHideFlags: 0
  serializedVersion: 2
  m_Modification:
    m_TransformParent: {fileID: 0}
    m_Modifications:
    - target: {fileID: 2833267341195583100, guid: c88448b3ccdd3c641a7d7f0bccd48fa8,
        type: 3}
      propertyPath: m_AdditionalShaderChannelsFlag
      value: 25
      objectReference: {fileID: 0}
    - target: {fileID: 2833267341263592798, guid: c88448b3ccdd3c641a7d7f0bccd48fa8,
        type: 3}
      propertyPath: m_Sprite
      value: 
      objectReference: {fileID: 21300000, guid: a723de564cf462f40adfada45e75bded,
        type: 3}
    - target: {fileID: 2833267341263592802, guid: c88448b3ccdd3c641a7d7f0bccd48fa8,
        type: 3}
      propertyPath: m_LocalScale.x
      value: 2.3
      objectReference: {fileID: 0}
    - target: {fileID: 2833267341263592802, guid: c88448b3ccdd3c641a7d7f0bccd48fa8,
        type: 3}
      propertyPath: m_LocalScale.y
      value: 2.3
      objectReference: {fileID: 0}
    - target: {fileID: 2833267341263592802, guid: c88448b3ccdd3c641a7d7f0bccd48fa8,
        type: 3}
      propertyPath: m_LocalScale.z
      value: 2.3
      objectReference: {fileID: 0}
    - target: {fileID: 2833267341263592802, guid: c88448b3ccdd3c641a7d7f0bccd48fa8,
        type: 3}
      propertyPath: m_AnchoredPosition.x
      value: 820
      objectReference: {fileID: 0}
    - target: {fileID: 2833267341263592802, guid: c88448b3ccdd3c641a7d7f0bccd48fa8,
        type: 3}
      propertyPath: m_AnchoredPosition.y
      value: -420
      objectReference: {fileID: 0}
    - target: {fileID: 2833267341263592802, guid: c88448b3ccdd3c641a7d7f0bccd48fa8,
        type: 3}
      propertyPath: m_SizeDelta.x
      value: 60
      objectReference: {fileID: 0}
    - target: {fileID: 2833267341263592802, guid: c88448b3ccdd3c641a7d7f0bccd48fa8,
        type: 3}
      propertyPath: m_SizeDelta.y
      value: 60
      objectReference: {fileID: 0}
    - target: {fileID: 2833267341263592803, guid: c88448b3ccdd3c641a7d7f0bccd48fa8,
        type: 3}
      propertyPath: m_Name
      value: Menu
      objectReference: {fileID: 0}
    - target: {fileID: 2833267341552027351, guid: c88448b3ccdd3c641a7d7f0bccd48fa8,
        type: 3}
      propertyPath: m_LocalPosition.x
      value: 10
      objectReference: {fileID: 0}
    - target: {fileID: 2833267341552027351, guid: c88448b3ccdd3c641a7d7f0bccd48fa8,
        type: 3}
      propertyPath: m_LocalPosition.y
      value: 0
      objectReference: {fileID: 0}
    - target: {fileID: 2833267341552027351, guid: c88448b3ccdd3c641a7d7f0bccd48fa8,
        type: 3}
      propertyPath: m_LocalPosition.z
      value: 0
      objectReference: {fileID: 0}
    - target: {fileID: 2833267341552027351, guid: c88448b3ccdd3c641a7d7f0bccd48fa8,
        type: 3}
      propertyPath: m_LocalRotation.x
      value: 0
      objectReference: {fileID: 0}
    - target: {fileID: 2833267341552027351, guid: c88448b3ccdd3c641a7d7f0bccd48fa8,
        type: 3}
      propertyPath: m_LocalRotation.y
      value: 0
      objectReference: {fileID: 0}
    - target: {fileID: 2833267341552027351, guid: c88448b3ccdd3c641a7d7f0bccd48fa8,
        type: 3}
      propertyPath: m_LocalRotation.z
      value: 0
      objectReference: {fileID: 0}
    - target: {fileID: 2833267341552027351, guid: c88448b3ccdd3c641a7d7f0bccd48fa8,
        type: 3}
      propertyPath: m_LocalRotation.w
      value: 1
      objectReference: {fileID: 0}
    - target: {fileID: 2833267341552027351, guid: c88448b3ccdd3c641a7d7f0bccd48fa8,
        type: 3}
      propertyPath: m_RootOrder
      value: 0
      objectReference: {fileID: 0}
    - target: {fileID: 2833267341552027351, guid: c88448b3ccdd3c641a7d7f0bccd48fa8,
        type: 3}
      propertyPath: m_LocalEulerAnglesHint.x
      value: 0
      objectReference: {fileID: 0}
    - target: {fileID: 2833267341552027351, guid: c88448b3ccdd3c641a7d7f0bccd48fa8,
        type: 3}
      propertyPath: m_LocalEulerAnglesHint.y
      value: 0
      objectReference: {fileID: 0}
    - target: {fileID: 2833267341552027351, guid: c88448b3ccdd3c641a7d7f0bccd48fa8,
        type: 3}
      propertyPath: m_LocalEulerAnglesHint.z
      value: 0
      objectReference: {fileID: 0}
    - target: {fileID: 2833267341552027354, guid: c88448b3ccdd3c641a7d7f0bccd48fa8,
        type: 3}
      propertyPath: m_Name
      value: UI Camera
      objectReference: {fileID: 0}
    - target: {fileID: 2833267342315924907, guid: c88448b3ccdd3c641a7d7f0bccd48fa8,
        type: 3}
      propertyPath: m_LocalScale.x
      value: 2.3
      objectReference: {fileID: 0}
    - target: {fileID: 2833267342315924907, guid: c88448b3ccdd3c641a7d7f0bccd48fa8,
        type: 3}
      propertyPath: m_LocalScale.y
      value: 2.3
      objectReference: {fileID: 0}
    - target: {fileID: 2833267342315924907, guid: c88448b3ccdd3c641a7d7f0bccd48fa8,
        type: 3}
      propertyPath: m_LocalScale.z
      value: 2.3
      objectReference: {fileID: 0}
    - target: {fileID: 2833267342315924907, guid: c88448b3ccdd3c641a7d7f0bccd48fa8,
        type: 3}
      propertyPath: m_AnchoredPosition.x
      value: -820
      objectReference: {fileID: 0}
    - target: {fileID: 2833267342315924907, guid: c88448b3ccdd3c641a7d7f0bccd48fa8,
        type: 3}
      propertyPath: m_AnchoredPosition.y
      value: -420
      objectReference: {fileID: 0}
    - target: {fileID: 2833267342315924907, guid: c88448b3ccdd3c641a7d7f0bccd48fa8,
        type: 3}
      propertyPath: m_SizeDelta.x
      value: 60
      objectReference: {fileID: 0}
    - target: {fileID: 2833267342315924907, guid: c88448b3ccdd3c641a7d7f0bccd48fa8,
        type: 3}
      propertyPath: m_SizeDelta.y
      value: 60
      objectReference: {fileID: 0}
    m_RemovedComponents: []
  m_SourcePrefab: {fileID: 100100000, guid: c88448b3ccdd3c641a7d7f0bccd48fa8, type: 3}
