# Object Export From Tinkercad Server 2015

mtllib obj.mtl

o obj_0
v -29.067 		6.657 		0
v -29.067 		6.657 		10
v -29.067 		12.349 		10
v -29.067 		12.349 		0
v 6.402 		7.483 		10
v 3.106 		-2.833 		0
v 3.258 		-3.143 		0
v 6.907 		7.442 		10
v 11.117 		18.968 		0
v 11.089 		18.459 		0
v 4.953 		18.422 		0
v 16.629 		27.458 		0
v 17.131 		27.017 		0
v 10.542 		15.805 		0
v 17.591 		26.55 		0
v 4.94 		17.93 		0
v 18.011 		26.05 		0
v 11.127 		19.487 		0
v 18.392 		25.52 		0
v 7.84 		7.28 		0
v 7.84 		7.28 		10
v 5.863 		7.497 		10
v 7.386 		7.374 		10
v 4.919 		16.457 		0
v 18.732 		24.959 		0
v 16.489 		12.419 		0
v 10.391 		15.443 		0
v 7.386 		7.374 		0
v 11.101 		20.358 		0
v 10.676 		16.189 		0
v 6.907 		7.442 		0
v 2.968 		-2.501 		0
v 16.489 		12.419 		10
v 3.424 		-3.432 		0
v 19.028 		24.375 		0
v 19.292 		23.76 		0
v 19.511 		23.107 		0
v 19.681 		22.429 		0
v 19.801 		21.728 		0
v 6.402 		7.483 		0
v 5.863 		7.497 		0
v 2.158 		7.497 		10
v 2.158 		7.497 		0
v 19.872 		21.004 		0
v 19.896 		20.26 		0
v 19.878 		19.608 		0
v 19.826 		18.973 		0
v 19.738 		18.353 		0
v 3.605 		-3.702 		0
v 19.614 		17.748 		0
v 16.815 		-8.348 		0
v 16.892 		12.81 		0
v 7.458 		29.87 		10
v 16.892 		12.81 		10
v 16.815 		-8.348 		10
v 19.453 		17.16 		0
v 19.262 		16.604 		0
v 3.788 		-3.937 		0
v 17.275 		13.223 		0
v 6.634 		29.824 		10
v 17.275 		13.223 		10
v 17.432 		-7.832 		0
v 17.432 		-7.832 		10
v 17.639 		13.658 		0
v 17.639 		13.658 		10
v 5.843 		29.746 		10
v 20.779 		-1.749 		10
v 20.94 		-0.741 		10
v 9.006 		24.583 		0
v 18.008 		-7.262 		0
v 18.008 		-7.262 		10
v 17.971 		14.102 		0
v 17.971 		14.102 		10
v 5.085 		29.637 		10
v 8.575 		24.689 		0
v 18.542 		-6.639 		0
v 18.542 		-6.639 		10
v 19.035 		-5.964 		10
v 19.485 		-5.239 		10
v 19.895 		-4.458 		10
v 20.256 		-3.613 		10
v 20.552 		-2.707 		10
v 18.279 		14.567 		0
v 18.279 		14.567 		10
v 3.993 		-4.146 		0
v 4.358 		29.497 		10
v 19.035 		-5.964 		0
v 10.74 		-4.009 		10
v 18.563 		15.05 		0
v 18.563 		15.05 		10
v 4.225 		-4.349 		0
v 19.485 		-5.239 		0
v 10.955 		-3.752 		10
v 18.821 		15.552 		0
v 18.821 		15.552 		10
v 19.895 		-4.458 		0
v 4.469 		-4.533 		0
v 11.15 		-3.472 		10
v 8.073 		24.726 		10
v 19.055 		16.072 		0
v 8.316 		29.885 		0
v 19.055 		16.072 		10
v 9.157 		29.869 		0
v 9.972 		29.819 		0
v 11.334 		-3.158 		10
v 20.256 		-3.613 		0
v 10.761 		29.736 		0
v 4.726 		-4.699 		0
v 11.524 		29.619 		0
v 12.262 		29.468 		0
v 12.973 		29.283 		0
v 13.656 		29.064 		0
v 14.31 		28.812 		0
v 14.934 		28.526 		0
v 15.528 		28.206 		0
v 20.552 		-2.707 		0
v 16.091 		27.852 		0
v 11.506 		-2.808 		10
v 4.997 		-4.845 		0
v 7.759 		24.71 		10
v 11.666 		-2.422 		10
v 20.779 		-1.749 		0
v 18.44 		8.382 		0
v 18.44 		8.382 		10
v 7.47 		24.664 		10
v 11.809 		-2.005 		10
v 20.94 		-0.741 		0
v 5.28 		-4.972 		0
v 14.4909 		10.938 		4.096
v 18.012 		8.814 		0
v 18.012 		8.814 		10
v 14.4909 		10.938 		2.048
v 5.589 		-5.082 		0
v 7.214 		24.59 		10
v 11.025 		21.142 		0
v 11.934 		-1.541 		10
v 17.557 		9.198 		0
v 17.557 		9.198 		10
v 5.915 		-5.174 		0
v 12.039 		-1.029 		10
v 17.099 		9.546 		0
v 17.099 		9.546 		10
v 10.901 		21.847 		0
v 12.122 		-0.469 		10
v 6.254 		-5.245 		0
v 16.624 		9.868 		0
v 16.624 		9.868 		10
v 10.732 		22.471 		0
v 6.605 		-5.297 		0
v 3.668 		29.324 		10
v 10.522 		23.018 		0
v 6.968 		-5.328 		0
v 10.271 		23.494 		0
v 3.005 		29.125 		10
v 21.036 		0.316 		0
v 21.036 		0.316 		10
v 8.333 		-5.262 		10
v 7.346 		-5.339 		0
v 9.999 		23.884 		0
v 8.645 		-5.203 		10
v 2.377 		28.901 		10
v 21.067 		1.424 		0
v 21.067 		1.424 		10
v 9.706 		24.184 		0
v 7.683 		-5.33 		0
v 8.95 		-5.127 		10
v 21.043 		2.237 		0
v 21.043 		2.237 		10
v 1.782 		28.653 		10
v 8.012 		-5.305 		0
v 9.243 		-5.036 		10
v 20.969 		3.019 		0
v 9.378 		24.415 		0
v 20.969 		3.019 		10
v 1.222 		28.379 		10
v 9.525 		-4.928 		10
v 20.845 		3.771 		0
v 20.845 		3.771 		10
v 0.696 		28.079 		10
v 9.785 		-4.799 		10
v 20.669 		4.49 		0
v 20.669 		4.49 		10
v 10.035 		-4.644 		10
v 0.21 		27.755 		10
v 10.793 		16.593 		0
v 10.276 		-4.462 		10
v 20.44 		5.175 		0
v 20.44 		5.175 		10
v 10.893 		17.032 		0
v 10.51 		-4.252 		10
v 20.163 		5.812 		0
v 10.977 		17.491 		0
v 20.163 		5.812 		10
v 11.042 		17.967 		0
v 19.868 		6.387 		0
v 19.868 		6.387 		10
v 7.68 		-10.955 		0
v 19.549 		6.929 		0
v 6.794 		-10.94 		0
v 19.549 		6.929 		10
v 5.948 		-10.894 		0
v 5.142 		-10.817 		0
v 4.375 		-10.708 		0
v 3.647 		-10.566 		0
v 2.97 		-10.395 		0
v 2.324 		-10.21 		0
v 1.708 		-10 		0
v 1.127 		-9.764 		0
v 0.582 		-9.502 		0
v 0.072 		-9.213 		0
v 0.072 		-9.213 		10
v 19.205 		7.443 		0
v 19.205 		7.443 		10
v 0.582 		-9.502 		10
v 18.835 		7.928 		0
v 18.835 		7.928 		10
v -2.238 		24.806 		0
v -2.009 		25.294 		0
v -1.736 		25.766 		0
v 1.127 		-9.764 		10
v -1.422 		26.214 		0
v -1.068 		26.637 		0
v -0.677 		27.035 		0
v -0.25 		27.408 		0
v 8.506 		-10.94 		10
v 9.323 		-10.894 		10
v 10.132 		-10.817 		10
v 10.931 		-10.709 		10
v 11.722 		-10.57 		10
v 12.513 		-10.398 		10
v 13.295 		-10.172 		10
v 14.05 		-9.901 		10
v 14.779 		-9.583 		10
v 15.483 		-9.219 		10
v 1.708 		-10 		10
v 16.159 		-8.809 		10
v 2.324 		-10.21 		10
v 8.073 		24.726 		0
v 8.315 		13.149 		10
v 2.47 		-0.031 		10
v 2.97 		-10.395 		10
v 7.759 		24.71 		0
v 2.503 		-0.503 		10
v 8.607 		13.316 		10
v -0.18 		17.36 		0
v 7.47 		24.664 		0
v -0.851 		17.778 		0
v 3.647 		-10.566 		10
v -1.435 		18.311 		0
v -1.918 		18.934 		0
v 2.556 		-0.948 		10
v -2.294 		19.644 		0
v -2.559 		20.428 		0
v -2.714 		21.271 		0
v -2.763 		22.158 		0
v -2.742 		22.718 		0
v -2.679 		23.258 		0
v -2.574 		23.788 		0
v -2.427 		24.304 		0
v 4.375 		-10.708 		10
v 8.89 		13.508 		10
v 2.63 		-1.366 		10
v 7.214 		24.59 		0
v 5.142 		-10.817 		10
v -15.781 		21.824 		0
v 2.724 		-1.758 		10
v -20.801 		21.824 		0
v 5.948 		-10.894 		10
v 9.154 		13.72 		10
v 2.841 		-2.138 		10
v 4.358 		29.497 		0
v 6.794 		-10.94 		10
v 5.085 		29.637 		0
v 5.843 		29.746 		0
v 6.634 		29.824 		0
v 9.401 		13.953 		10
v 7.458 		29.87 		0
v -1.699 		0.165 		0
v -1.45 		0.383 		0
v -1.201 		0.572 		0
v -0.943 		0.741 		0
v 7.68 		-10.955 		10
v -0.675 		0.888 		0
v -0.398 		1.014 		0
v -0.133 		1.112 		0
v 2.968 		-2.501 		10
v -15.781 		12.349 		0
v 9.629 		14.206 		10
v 3.106 		-2.833 		10
v -7.447 		6.657 		0
v -15.781 		6.657 		0
v -7.447 		12.349 		0
v -0.25 		27.408 		10
v 9.843 		14.483 		10
v 3.258 		-3.143 		10
v -20.801 		12.349 		0
v -20.801 		6.657 		0
v 3.424 		-3.432 		10
v -0.677 		27.035 		10
v 0.21 		27.755 		0
v 10.042 		14.782 		10
v 0.696 		28.079 		0
v 1.222 		28.379 		0
v 1.782 		28.653 		0
v 2.377 		28.901 		0
v 3.005 		29.125 		0
v 3.605 		-3.702 		10
v 3.668 		29.324 		0
v -1.068 		26.637 		10
v 14.718 		11.077 		0
v 10.225 		15.102 		10
v -1.422 		26.214 		10
v 3.788 		-3.937 		10
v 15.173 		11.378 		0
v 6.988 		24.49 		0
v -1.736 		25.766 		10
v 10.391 		15.443 		10
v 15.626 		11.7 		0
v 6.788 		24.367 		0
v -2.009 		25.294 		10
v -3.164 		-3.663 		0
v -3.153 		-3.269 		0
v -3.119 		-2.887 		0
v 10.542 		15.805 		10
v -2.238 		24.806 		10
v 16.067 		12.049 		0
v -3.062 		-2.513 		0
v 6.585 		24.201 		0
v -2.981 		-2.149 		0
v -2.877 		-1.794 		0
v -2.753 		-1.464 		0
v -2.623 		-1.163 		0
v -2.474 		-0.869 		0
v 3.993 		-4.146 		10
v -2.307 		-0.59 		0
v -2.123 		-0.325 		0
v -1.923 		-0.076 		0
v 6.38 		24.007 		0
v 10.676 		16.189 		10
v 4.225 		-4.349 		10
v 6.198 		23.799 		0
v -2.427 		24.304 		10
v 15.63 		10.436 		0
v 4.469 		-4.533 		10
v 6.03 		23.569 		0
v -2.574 		23.788 		10
v 4.726 		-4.699 		10
v 14.718 		11.077 		10
v 4.997 		-4.845 		10
v -2.679 		23.258 		10
v 5.876 		23.312 		0
v 15.113 		10.679 		0
v -1.592 		-7.826 		0
v -1.922 		-7.425 		0
v -2.218 		-7.002 		0
v -2.481 		-6.549 		0
v 15.173 		11.378 		10
v -2.691 		-6.082 		0
v 5.28 		-4.972 		10
v -2.861 		-5.616 		0
v -2.993 		-5.139 		0
v 5.735 		23.028 		0
v -3.088 		-4.653 		0
v -2.742 		22.718 		10
v -3.145 		-4.158 		0
v 5.589 		-5.082 		10
v 15.626 		11.7 		10
v 5.604 		22.706 		0
v -2.763 		22.158 		10
v 14.598 		10.897 		0
v 5.915 		-5.174 		10
v 16.067 		12.049 		10
v -0.399 		-8.897 		0
v 5.485 		22.365 		0
v -2.714 		21.271 		10
v -0.831 		-8.56 		0
v -1.228 		-8.204 		0
v 6.254 		-5.245 		10
v 14.4909 		10.938 		0
v -15.781 		-2.818 		0
v 5.379 		22.005 		0
v -2.559 		20.428 		10
v -20.801 		-2.818 		0
v 6.605 		-5.297 		10
v 5.288 		21.624 		0
v -2.294 		19.644 		10
v 15.63 		10.436 		10
v 6.968 		-5.328 		10
v 5.21 		21.221 		0
v -1.918 		18.934 		10
v 18.732 		24.959 		10
v 18.392 		25.52 		10
v 18.011 		26.05 		10
v 7.346 		-5.339 		10
v 17.591 		26.55 		10
v 5.147 		20.797 		0
v 17.131 		27.017 		10
v 16.629 		27.458 		10
v -1.435 		18.311 		10
v 7.683 		-5.33 		10
v 15.113 		10.679 		10
v -0.851 		17.778 		10
v 8.012 		-5.305 		10
v 14.091 		11.091 		0
v -0.18 		17.36 		10
v 5.097 		20.333 		0
v 5.047 		19.859 		0
v 14.598 		10.897 		10
v 5.007 		19.387 		0
v 13.588 		11.263 		0
v 14.4909 		10.938 		10
v 4.976 		18.908 		0
v 19.614 		17.748 		10
v 14.4909 		10.938 		8.192
v 19.738 		18.353 		10
v 13.089 		11.414 		0
v 19.826 		18.973 		10
v 19.878 		19.608 		10
v 19.896 		20.26 		10
v 19.872 		21.004 		10
v 19.801 		21.728 		10
v 19.681 		22.429 		10
v 19.511 		23.107 		10
v 19.292 		23.76 		10
v -15.781 		21.824 		10
v 19.028 		24.375 		10
v 12.595 		11.542 		0
v 19.262 		16.604 		10
v 19.453 		17.16 		10
v -20.801 		21.824 		10
v 13.143 		10.821 		0
v 9.006 		24.583 		10
v 3.112 		16.509 		0
v 2.193 		16.611 		0
v 1.337 		16.785 		0
v 0.546 		17.033 		0
v 13.272 		10.266 		0
v -0.133 		1.112 		10
v 8.575 		24.689 		10
v -0.398 		1.014 		10
v 14.091 		11.091 		10
v -0.675 		0.888 		10
v 13.588 		11.263 		10
v -0.943 		0.741 		10
v -1.201 		0.572 		10
v 8.316 		29.885 		10
v 13.089 		11.414 		10
v 10.74 		-4.009 		0
v 13.767 		10.52 		0
v -1.45 		0.383 		10
v 12.595 		11.542 		10
v -1.699 		0.165 		10
v 10.955 		-3.752 		0
v 16.091 		27.852 		10
v 14.249 		10.79 		0
v 15.528 		28.206 		10
v 14.934 		28.526 		10
v 14.31 		28.812 		10
v 13.656 		29.064 		10
v 12.973 		29.283 		10
v 12.262 		29.468 		10
v 11.524 		29.619 		10
v 10.761 		29.736 		10
v 9.972 		29.819 		10
v 13.143 		10.821 		10
v 9.157 		29.869 		10
v 11.15 		-3.472 		0
v 11.025 		21.142 		10
v 11.334 		-3.158 		0
v 16.135 		10.165 		0
v 13.272 		10.266 		10
v 10.901 		21.847 		10
v 6.988 		24.49 		10
v -7.447 		12.349 		10
v -7.447 		6.657 		10
v 11.506 		-2.808 		0
v 10.732 		22.471 		10
v -15.781 		12.349 		10
v 10.522 		23.018 		10
v 6.788 		24.367 		10
v 11.666 		-2.422 		0
v 12.764 		10.028 		0
v -15.781 		6.657 		10
v 6.585 		24.201 		10
v 11.809 		-2.005 		0
v 10.271 		23.494 		10
v 13.767 		10.52 		10
v 8.315 		13.149 		0
v 6.029 		12.693 		0
v 9.999 		23.884 		10
v 2.158 		12.693 		0
v -20.801 		12.349 		10
v 2.158 		12.693 		10
v 6.029 		12.693 		10
v 11.934 		-1.541 		0
v 6.38 		24.007 		10
v 14.249 		10.79 		10
v 9.706 		24.184 		10
v 8.607 		13.316 		0
v -20.801 		6.657 		10
v 12.039 		-1.029 		0
v 6.198 		23.799 		10
v 8.89 		13.508 		0
v 9.378 		24.415 		10
v 6.485 		12.707 		0
v 6.485 		12.707 		10
v 9.154 		13.72 		0
v 12.122 		-0.469 		0
v 16.135 		10.165 		10
v 6.03 		23.569 		10
v -1.923 		-0.076 		10
v 9.401 		13.953 		0
v 6.904 		12.747 		0
v 6.904 		12.747 		10
v 10.793 		16.593 		10
v 5.876 		23.312 		10
v 8.333 		-5.262 		0
v 9.629 		14.206 		0
v 12.764 		10.028 		10
v -2.123 		-0.325 		10
v 10.893 		17.032 		10
v 5.735 		23.028 		10
v 7.297 		12.812 		0
v 7.297 		12.812 		10
v 8.645 		-5.203 		0
v 9.843 		14.483 		0
v 10.977 		17.491 		10
v -2.307 		-0.59 		10
v 5.604 		22.706 		10
v 8.95 		-5.127 		0
v 10.042 		14.782 		0
v 11.042 		17.967 		10
v 7.664 		12.902 		0
v 7.664 		12.902 		10
v -2.474 		-0.869 		10
v 11.089 		18.459 		10
v 10.225 		15.102 		0
v 5.485 		22.365 		10
v 9.243 		-5.036 		0
v -2.623 		-1.163 		10
v -2.753 		-1.464 		10
v -2.877 		-1.794 		10
v 11.117 		18.968 		10
v -2.981 		-2.149 		10
v -3.062 		-2.513 		10
v -3.119 		-2.887 		10
v -3.153 		-3.269 		10
v -3.164 		-3.663 		10
v 8.006 		13.016 		0
v 9.525 		-4.928 		0
v 8.006 		13.016 		10
v 11.127 		19.487 		10
v 5.379 		22.005 		10
v 11.101 		20.358 		10
v 9.785 		-4.799 		0
v 5.288 		21.624 		10
v 10.035 		-4.644 		0
v 5.21 		21.221 		10
v 10.276 		-4.462 		0
v -3.145 		-4.158 		10
v -3.088 		-4.653 		10
v 5.147 		20.797 		10
v -2.993 		-5.139 		10
v -2.861 		-5.616 		10
v -2.691 		-6.082 		10
v -2.481 		-6.549 		10
v 11.687 		4.259 		10
v -2.218 		-7.002 		10
v -1.922 		-7.425 		10
v -1.592 		-7.826 		10
v 0.546 		17.033 		10
v 11.524 		4.586 		10
v 10.51 		-4.252 		0
v 1.337 		16.785 		10
v -1.228 		-8.204 		10
v -0.831 		-8.56 		10
v -0.399 		-8.897 		10
v 11.34 		4.896 		10
v -15.781 		-2.818 		10
v 2.193 		16.611 		10
v 9.323 		-10.894 		0
v 8.506 		-10.94 		0
v -20.801 		-2.818 		10
v 11.133 		5.192 		10
v 10.132 		-10.817 		0
v 3.112 		16.509 		10
v 10.903 		5.473 		10
v 10.931 		-10.709 		0
v 4.919 		16.457 		10
v 11.722 		-10.57 		0
v 10.644 		5.746 		10
v 12.513 		-10.398 		0
v 5.097 		20.333 		10
v 10.371 		6.002 		10
v 13.295 		-10.172 		0
v 5.047 		19.859 		10
v 14.05 		-9.901 		0
v 10.082 		6.237 		10
v 5.007 		19.387 		10
v 14.779 		-9.583 		0
v 9.768 		6.456 		10
v 4.976 		18.908 		10
v 15.483 		-9.219 		0
v 16.159 		-8.809 		0
v 4.953 		18.422 		10
v 9.429 		6.659 		10
v 4.94 		17.93 		10
v 9.065 		6.846 		10
v 8.677 		7.015 		10
v 8.27 		7.161 		10
v 12.182 		0.14 		10
v 12.219 		0.796 		10
v 12.231 		1.495 		10
v 12.219 		1.944 		10
v 12.185 		2.371 		10
v 12.129 		2.78 		10
v 12.05 		3.174 		10
v 14.4909 		10.938 		6.144
v 11.95 		3.552 		10
v 11.829 		3.914 		10
v 11.687 		4.259 		0
v 11.524 		4.586 		0
v 11.34 		4.896 		0
v 11.133 		5.192 		0
v 10.903 		5.473 		0
v 10.644 		5.746 		0
v 10.371 		6.002 		0
v 10.082 		6.237 		0
v 9.768 		6.456 		0
v 9.429 		6.659 		0
v 9.065 		6.846 		0
v 8.677 		7.015 		0
v 8.27 		7.161 		0
v 12.182 		0.14 		0
v 12.219 		0.796 		0
v 12.231 		1.495 		0
v 12.219 		1.944 		0
v 12.185 		2.371 		0
v 12.129 		2.78 		0
v 12.05 		3.174 		0
v 11.95 		3.552 		0
v 11.829 		3.914 		0
v 0.134 		1.204 		0
v 0.422 		1.284 		0
v 0.715 		1.345 		0
v 1.013 		1.389 		0
v 1.316 		1.415 		0
v 2.438 		1.446 		0
v 2.47 		-0.031 		0
v 2.503 		-0.503 		0
v 2.556 		-0.948 		0
v 2.63 		-1.366 		0
v 2.724 		-1.758 		0
v 1.316 		1.415 		10
v 1.013 		1.389 		10
v 0.715 		1.345 		10
v 2.841 		-2.138 		0
v 0.422 		1.284 		10
v 0.134 		1.204 		10
v 2.438 		1.446 		10
# 660 vertices

g group_0_15277357

usemtl color_15277357
s 0

f 1 	2 	3
f 1 	3 	4
f 17 	148 	15
f 19 	148 	17
f 15 	148 	13
f 25 	143 	19
f 20 	21 	23
f 20 	23 	28
f 28 	23 	8
f 28 	8 	31
f 31 	8 	5
f 31 	5 	40
f 40 	5 	22
f 40 	22 	41
f 34 	356 	7
f 41 	22 	42
f 41 	42 	43
f 551 	534 	21
f 49 	354 	34
f 52 	54 	33
f 52 	33 	26
f 58 	377 	49
f 59 	61 	54
f 59 	54 	52
f 44 	45 	29
f 45 	46 	29
f 46 	47 	18
f 47 	48 	18
f 29 	135 	39
f 9 	18 	48
f 50 	56 	9
f 10 	9 	56
f 57 	100 	10
f 194 	10 	100
f 100 	94 	194
f 94 	89 	192
f 38 	39 	135
f 51 	62 	63
f 51 	63 	55
f 275 	274 	60
f 64 	65 	61
f 64 	61 	59
f 62 	70 	71
f 62 	71 	63
f 72 	73 	65
f 72 	65 	64
f 101 	103 	75
f 70 	76 	77
f 70 	77 	71
f 78 	79 	121
f 126 	121 	79
f 79 	80 	126
f 136 	126 	80
f 80 	81 	136
f 82 	140 	81
f 67 	140 	82
f 83 	84 	73
f 83 	73 	72
f 76 	87 	78
f 76 	78 	77
f 89 	90 	84
f 89 	84 	83
f 91 	210 	85
f 85 	373 	58
f 87 	92 	79
f 87 	79 	78
f 94 	95 	90
f 94 	90 	89
f 92 	96 	80
f 92 	80 	79
f 97 	208 	91
f 88 	234 	93
f 100 	102 	95
f 100 	95 	94
f 96 	106 	81
f 96 	81 	80
f 108 	207 	97
f 93 	236 	98
f 106 	116 	82
f 106 	82 	81
f 119 	206 	108
f 102 	100 	57
f 116 	122 	67
f 116 	67 	82
f 112 	159 	111
f 111 	164 	110
f 109 	110 	173
f 107 	109 	173
f 173 	69 	107
f 104 	107 	69
f 113 	159 	112
f 114 	153 	113
f 115 	153 	114
f 12 	13 	151
f 69 	75 	104
f 105 	98 	63
f 128 	205 	119
f 127 	68 	67
f 127 	67 	122
f 130 	131 	124
f 130 	124 	123
f 133 	204 	128
f 322 	323 	32
f 63 	71 	105
f 130 	137 	138
f 130 	138 	131
f 139 	203 	133
f 118 	105 	71
f 71 	77 	118
f 137 	141 	142
f 137 	142 	138
f 121 	118 	77
f 77 	78 	121
f 141 	146 	147
f 141 	147 	142
f 408 	370 	129
f 145 	202 	139
f 25 	35 	143
f 148 	19 	143
f 151 	13 	148
f 136 	81 	140
f 140 	67 	144
f 144 	67 	68
f 129 	404 	132
f 153 	115 	151
f 467 	453 	98
f 156 	68 	155
f 127 	155 	68
f 159 	113 	153
f 129 	132 	455
f 105 	469 	98
f 155 	162 	163
f 155 	163 	156
f 164 	111 	159
f 582 	197 	165
f 149 	145 	384
f 388 	384 	268
f 167 	168 	163
f 167 	163 	162
f 173 	110 	164
f 172 	174 	168
f 172 	168 	167
f 152 	149 	384
f 272 	282 	394
f 177 	178 	174
f 177 	174 	172
f 403 	400 	225
f 103 	104 	75
f 115 	117 	151
f 117 	12 	151
f 160 	157 	226
f 181 	182 	178
f 181 	178 	177
f 197 	199 	158
f 170 	582 	165
f 394 	400 	158
f 165 	158 	400
f 227 	228 	166
f 187 	188 	182
f 187 	182 	181
f 228 	229 	176
f 170 	165 	400
f 191 	193 	188
f 191 	188 	187
f 508 	140 	144
f 195 	196 	193
f 195 	193 	191
f 275 	60 	53
f 55 	98 	236
f 190 	233 	88
f 231 	232 	186
f 183 	180 	230
f 198 	200 	196
f 198 	196 	195
f 611 	634 	144
f 66 	60 	274
f 205 	128 	204
f 204 	133 	203
f 203 	139 	202
f 206 	119 	205
f 202 	145 	201
f 149 	152 	201
f 207 	108 	206
f 208 	97 	207
f 209 	91 	208
f 210 	91 	209
f 373 	85 	210
f 199 	201 	152
f 152 	158 	199
f 210 	211 	373
f 212 	213 	200
f 212 	200 	198
f 36 	37 	135
f 56 	57 	10
f 274 	273 	74
f 274 	74 	66
f 209 	214 	211
f 209 	211 	210
f 215 	216 	213
f 215 	213 	212
f 35 	36 	143
f 18 	29 	46
f 215 	123 	216
f 124 	216 	123
f 221 	374 	219
f 219 	374 	218
f 222 	368 	221
f 223 	368 	222
f 224 	362 	223
f 273 	86 	74
f 208 	220 	214
f 208 	214 	209
f 207 	235 	220
f 207 	220 	208
f 135 	143 	36
f 37 	38 	135
f 39 	44 	29
f 190 	186 	232
f 232 	233 	190
f 186 	183 	231
f 230 	231 	183
f 229 	230 	180
f 180 	176 	229
f 233 	234 	88
f 63 	98 	55
f 236 	93 	234
f 176 	171 	228
f 206 	237 	235
f 206 	235 	207
f 242 	277 	238
f 205 	241 	237
f 205 	237 	206
f 246 	275 	242
f 75 	238 	101
f 204 	248 	241
f 204 	241 	205
f 203 	260 	248
f 203 	248 	204
f 249 	406 	247
f 250 	406 	249
f 252 	406 	250
f 253 	396 	252
f 254 	396 	253
f 255 	389 	254
f 256 	385 	255
f 257 	385 	256
f 258 	385 	257
f 259 	381 	258
f 436 	245 	407
f 656 	658 	240
f 655 	656 	240
f 263 	274 	246
f 202 	264 	260
f 202 	260 	203
f 201 	268 	264
f 201 	264 	202
f 199 	272 	268
f 199 	268 	201
f 573 	186 	190
f 197 	282 	272
f 197 	272 	199
f 280 	651 	279
f 281 	651 	280
f 283 	651 	281
f 284 	651 	283
f 285 	650 	284
f 643 	650 	285
f 279 	652 	278
f 445 	450 	251
f 88 	448 	190
f 225 	282 	197
f 291 	296 	287
f 251 	450 	262
f 275 	246 	274
f 277 	242 	275
f 101 	238 	277
f 315 	273 	263
f 319 	271 	315
f 274 	263 	273
f 273 	315 	271
f 362 	300 	351
f 374 	221 	368
f 385 	258 	381
f 302 	351 	300
f 290 	291 	287
f 290 	287 	292
f 224 	293 	184
f 300 	224 	184
f 262 	535 	266
f 86 	308 	150
f 4 	296 	297
f 4 	297 	1
f 545 	546 	270
f 224 	223 	299
f 224 	299 	293
f 453 	88 	93
f 265 	287 	267
f 267 	287 	296
f 297 	296 	291
f 154 	150 	306
f 308 	306 	150
f 286 	270 	546
f 223 	222 	309
f 223 	309 	299
f 303 	351 	302
f 304 	345 	303
f 305 	341 	304
f 306 	338 	305
f 308 	328 	306
f 271 	319 	308
f 300 	362 	224
f 93 	98 	453
f 161 	154 	305
f 306 	305 	154
f 222 	221 	312
f 222 	312 	309
f 547 	548 	286
f 546 	547 	286
f 467 	98 	469
f 221 	219 	316
f 221 	316 	312
f 305 	169 	161
f 219 	218 	320
f 219 	320 	316
f 169 	303 	175
f 105 	118 	469
f 476 	469 	118
f 289 	286 	560
f 548 	560 	286
f 218 	217 	325
f 218 	325 	320
f 303 	179 	175
f 118 	121 	476
f 481 	476 	121
f 217 	342 	325
f 329 	657 	327
f 330 	653 	329
f 331 	653 	330
f 323 	327 	657
f 657 	32 	323
f 332 	653 	331
f 333 	653 	332
f 335 	652 	333
f 336 	652 	335
f 337 	652 	336
f 278 	652 	337
f 485 	481 	121
f 485 	121 	126
f 341 	305 	338
f 217 	259 	342
f 575 	576 	313
f 259 	258 	346
f 259 	346 	342
f 345 	304 	341
f 328 	308 	319
f 576 	577 	313
f 126 	136 	485
f 495 	485 	136
f 258 	257 	350
f 258 	350 	346
f 334 	313 	577
f 351 	303 	345
f 140 	495 	136
f 577 	211 	334
f 257 	256 	364
f 257 	364 	350
f 277 	275 	53
f 340 	334 	211
f 354 	49 	353
f 355 	34 	354
f 356 	34 	355
f 358 	7 	356
f 360 	7 	358
f 361 	6 	360
f 365 	6 	363
f 321 	32 	365
f 363 	6 	361
f 149 	201 	145
f 158 	165 	197
f 256 	255 	369
f 256 	369 	364
f 368 	223 	362
f 338 	306 	328
f 211 	214 	340
f 408 	401 	370
f 255 	254 	375
f 255 	375 	369
f 377 	58 	376
f 353 	49 	377
f 376 	58 	373
f 379 	310 	132
f 297 	291 	380
f 381 	217 	374
f 254 	253 	382
f 254 	382 	375
f 273 	271 	86
f 380 	383 	297
f 370 	379 	132
f 132 	129 	370
f 170 	403 	517
f 253 	252 	386
f 253 	386 	382
f 344 	340 	220
f 389 	255 	385
f 132 	404 	379
f 252 	250 	390
f 252 	390 	386
f 157 	160 	517
f 525 	517 	160
f 220 	235 	344
f 238 	75 	99
f 398 	454 	479
f 397 	398 	479
f 454 	456 	479
f 486 	479 	456
f 456 	457 	486
f 250 	249 	399
f 250 	399 	390
f 132 	379 	455
f 235 	237 	347
f 347 	344 	235
f 166 	530 	160
f 242 	238 	99
f 242 	99 	120
f 247 	402 	399
f 247 	399 	249
f 366 	359 	248
f 241 	248 	359
f 539 	166 	171
f 396 	254 	389
f 218 	374 	217
f 406 	252 	396
f 217 	381 	259
f 120 	125 	242
f 246 	242 	125
f 245 	405 	402
f 245 	402 	247
f 409 	436 	407
f 171 	176 	539
f 550 	539 	176
f 412 	435 	409
f 263 	246 	125
f 263 	125 	134
f 245 	571 	405
f 11 	434 	412
f 287 	265 	425
f 180 	555 	176
f 550 	176 	555
f 408 	414 	411
f 16 	433 	11
f 407 	245 	406
f 260 	264 	371
f 378 	371 	264
f 371 	366 	260
f 248 	260 	366
f 421 	422 	468
f 422 	423 	468
f 423 	424 	468
f 472 	468 	424
f 424 	426 	472
f 426 	391 	472
f 391 	392 	472
f 477 	472 	392
f 392 	393 	477
f 430 	425 	267
f 265 	267 	425
f 557 	555 	180
f 557 	180 	183
f 411 	441 	414
f 271 	308 	86
f 497 	411 	414
f 183 	186 	557
f 559 	557 	186
f 436 	409 	435
f 24 	433 	16
f 434 	11 	433
f 435 	412 	434
f 247 	406 	245
f 643 	285 	438
f 490 	486 	458
f 285 	284 	440
f 285 	440 	438
f 573 	559 	186
f 284 	283 	442
f 284 	442 	440
f 171 	166 	228
f 359 	349 	241
f 264 	268 	378
f 384 	378 	268
f 268 	272 	388
f 394 	388 	272
f 400 	394 	282
f 282 	225 	400
f 225 	226 	403
f 157 	403 	226
f 226 	227 	160
f 166 	160 	227
f 283 	281 	444
f 283 	444 	442
f 305 	304 	169
f 83 	72 	189
f 72 	64 	189
f 185 	189 	64
f 189 	192 	83
f 27 	14 	318
f 326 	318 	14
f 89 	83 	192
f 281 	280 	445
f 281 	445 	444
f 304 	303 	169
f 280 	279 	450
f 280 	450 	445
f 303 	302 	179
f 320 	325 	538
f 553 	538 	325
f 316 	320 	538
f 342 	553 	325
f 346 	553 	342
f 350 	556 	346
f 130 	621 	137
f 123 	621 	130
f 137 	622 	141
f 279 	278 	452
f 279 	452 	450
f 88 	453 	448
f 184 	179 	300
f 302 	300 	179
f 432 	464 	439
f 458 	459 	490
f 459 	460 	490
f 498 	490 	460
f 504 	463 	432
f 460 	461 	498
f 504 	498 	461
f 462 	504 	461
f 463 	504 	462
f 464 	432 	463
f 466 	439 	464
f 446 	439 	466
f 292 	474 	475
f 292 	475 	290
f 417 	418 	552
f 415 	417 	552
f 425 	478 	287
f 382 	562 	375
f 538 	529 	312
f 309 	312 	529
f 299 	309 	529
f 529 	522 	299
f 386 	562 	382
f 390 	593 	386
f 405 	571 	596
f 292 	287 	478
f 292 	478 	474
f 475 	483 	291
f 475 	291 	290
f 212 	642 	215
f 198 	641 	212
f 195 	641 	198
f 191 	640 	195
f 187 	640 	191
f 181 	639 	187
f 177 	639 	181
f 172 	638 	177
f 167 	637 	172
f 127 	634 	155
f 215 	642 	123
f 554 	552 	418
f 291 	483 	579
f 430 	492 	425
f 296 	4 	3
f 296 	3 	492
f 419 	420 	554
f 489 	491 	493
f 489 	493 	494
f 499 	482 	488
f 420 	421 	554
f 2 	1 	297
f 2 	297 	500
f 267 	296 	492
f 267 	492 	430
f 501 	495 	140
f 393 	395 	477
f 468 	554 	421
f 505 	489 	494
f 505 	494 	506
f 445 	251 	444
f 444 	251 	442
f 442 	251 	440
f 511 	262 	452
f 507 	427 	503
f 503 	427 	499
f 140 	508 	501
f 457 	458 	486
f 479 	477 	397
f 395 	397 	477
f 483 	475 	474
f 483 	474 	478
f 278 	511 	452
f 512 	427 	507
f 513 	505 	506
f 513 	506 	514
f 478 	492 	483
f 2 	500 	492
f 2 	492 	3
f 478 	425 	492
f 492 	500 	483
f 579 	483 	500
f 518 	427 	512
f 523 	513 	514
f 523 	514 	524
f 515 	65 	521
f 525 	160 	530
f 533 	523 	524
f 533 	524 	534
f 166 	539 	530
f 527 	95 	532
f 521 	84 	527
f 333 	332 	535
f 549 	533 	534
f 549 	534 	551
f 520 	262 	511
f 452 	262 	450
f 528 	262 	520
f 535 	262 	528
f 540 	266 	535
f 541 	266 	540
f 542 	266 	541
f 560 	561 	289
f 561 	563 	289
f 563 	564 	289
f 544 	266 	542
f 544 	545 	270
f 532 	102 	536
f 488 	551 	239
f 30 	185 	52
f 531 	427 	526
f 413 	415 	543
f 536 	429 	543
f 59 	52 	185
f 499 	239 	244
f 551 	488 	549
f 418 	419 	554
f 552 	543 	415
f 42 	493 	491
f 261 	503 	244
f 499 	244 	503
f 507 	503 	261
f 507 	261 	269
f 329 	327 	544
f 295 	289 	564
f 564 	565 	295
f 565 	566 	295
f 298 	295 	566
f 566 	568 	298
f 568 	569 	298
f 307 	298 	569
f 569 	570 	307
f 570 	575 	307
f 313 	307 	575
f 214 	220 	340
f 318 	314 	27
f 14 	30 	26
f 52 	26 	30
f 64 	59 	185
f 192 	194 	94
f 48 	50 	9
f 439 	446 	99
f 53 	99 	446
f 269 	276 	507
f 120 	99 	53
f 237 	241 	349
f 349 	347 	237
f 573 	190 	448
f 53 	60 	120
f 410 	27 	314
f 416 	27 	410
f 404 	410 	314
f 581 	226 	225
f 581 	225 	582
f 583 	579 	500
f 585 	227 	226
f 585 	226 	581
f 25 	391 	426
f 625 	584 	587
f 588 	228 	227
f 588 	227 	585
f 531 	294 	301
f 19 	392 	391
f 19 	391 	25
f 590 	229 	228
f 590 	228 	588
f 17 	393 	392
f 17 	392 	19
f 592 	230 	229
f 592 	229 	590
f 531 	301 	311
f 15 	395 	393
f 15 	393 	17
f 169 	175 	510
f 502 	496 	161
f 496 	484 	154
f 66 	74 	134
f 480 	473 	86
f 74 	86 	473
f 473 	134 	74
f 134 	125 	66
f 60 	66 	125
f 125 	120 	60
f 595 	231 	230
f 595 	230 	592
f 352 	455 	370
f 379 	370 	455
f 13 	397 	395
f 13 	395 	15
f 27 	311 	317
f 597 	232 	231
f 597 	231 	595
f 13 	12 	398
f 13 	398 	397
f 600 	233 	232
f 600 	232 	597
f 379 	404 	310
f 314 	310 	404
f 26 	326 	14
f 427 	27 	416
f 14 	27 	317
f 14 	317 	324
f 375 	558 	369
f 293 	299 	522
f 179 	184 	516
f 175 	179 	516
f 369 	556 	364
f 364 	556 	350
f 312 	316 	538
f 516 	510 	175
f 154 	161 	496
f 603 	234 	233
f 603 	233 	600
f 57 	428 	102
f 537 	27 	427
f 324 	339 	14
f 30 	14 	339
f 604 	236 	234
f 604 	234 	603
f 57 	56 	429
f 57 	429 	428
f 55 	236 	604
f 55 	604 	51
f 56 	50 	413
f 56 	413 	429
f 605 	607 	16
f 30 	339 	515
f 427 	431 	482
f 197 	582 	225
f 48 	415 	413
f 48 	413 	50
f 16 	607 	589
f 47 	417 	415
f 47 	415 	48
f 46 	418 	417
f 46 	417 	47
f 449 	352 	624
f 455 	352 	449
f 45 	419 	418
f 45 	418 	46
f 480 	319 	473
f 44 	420 	419
f 44 	419 	45
f 86 	150 	480
f 484 	480 	150
f 39 	421 	420
f 39 	420 	44
f 328 	319 	484
f 251 	262 	652
f 508 	144 	634
f 150 	154 	484
f 38 	422 	421
f 38 	421 	39
f 326 	26 	372
f 511 	336 	520
f 612 	634 	611
f 652 	262 	266
f 37 	423 	422
f 37 	422 	38
f 161 	169 	502
f 336 	528 	520
f 36 	424 	423
f 36 	423 	37
f 449 	624 	437
f 437 	624 	482
f 343 	624 	352
f 470 	624 	343
f 146 	623 	470
f 141 	622 	146
f 510 	502 	169
f 333 	535 	528
f 35 	426 	424
f 35 	424 	36
f 522 	516 	184
f 184 	293 	522
f 345 	341 	510
f 553 	346 	556
f 426 	35 	25
f 526 	427 	518
f 537 	427 	531
f 632 	633 	488
f 482 	499 	427
f 540 	535 	332
f 638 	614 	615
f 345 	510 	516
f 454 	398 	117
f 12 	117 	398
f 348 	411 	414
f 505 	40 	489
f 332 	331 	541
f 332 	541 	540
f 556 	369 	558
f 558 	375 	562
f 399 	593 	390
f 117 	115 	456
f 117 	456 	454
f 513 	31 	505
f 562 	386 	593
f 523 	28 	513
f 115 	114 	457
f 115 	457 	456
f 331 	542 	541
f 529 	368 	522
f 310 	348 	129
f 114 	113 	458
f 114 	458 	457
f 549 	20 	533
f 329 	544 	542
f 408 	618 	414
f 113 	112 	459
f 113 	459 	458
f 545 	544 	327
f 399 	402 	593
f 402 	405 	593
f 482 	632 	488
f 533 	20 	523
f 40 	505 	31
f 112 	111 	460
f 112 	460 	459
f 111 	110 	461
f 111 	461 	460
f 596 	593 	405
f 571 	574 	599
f 110 	109 	462
f 110 	462 	461
f 327 	323 	546
f 327 	546 	545
f 109 	107 	463
f 109 	463 	462
f 334 	85 	313
f 556 	385 	553
f 547 	546 	322
f 323 	322 	546
f 602 	599 	574
f 605 	602 	580
f 599 	596 	571
f 607 	605 	586
f 580 	602 	574
f 586 	605 	580
f 589 	607 	586
f 416 	410 	447
f 107 	104 	464
f 107 	464 	463
f 385 	556 	558
f 104 	103 	466
f 104 	466 	464
f 322 	548 	547
f 416 	447 	451
f 572 	621 	567
f 562 	396 	558
f 625 	482 	624
f 103 	101 	446
f 103 	446 	466
f 623 	572 	578
f 560 	548 	365
f 628 	482 	627
f 277 	446 	101
f 53 	446 	277
f 61 	515 	54
f 65 	515 	61
f 73 	521 	65
f 102 	532 	95
f 428 	536 	102
f 429 	536 	428
f 584 	623 	578
f 437 	482 	471
f 321 	365 	548
f 630 	482 	629
f 631 	482 	630
f 627 	482 	626
f 365 	363 	561
f 365 	561 	560
f 598 	594 	519
f 387 	401 	584
f 69 	432 	439
f 69 	439 	75
f 629 	482 	628
f 563 	561 	361
f 363 	361 	561
f 625 	587 	591
f 480 	484 	319
f 361 	360 	564
f 361 	564 	563
f 99 	75 	439
f 591 	594 	627
f 565 	564 	358
f 360 	358 	564
f 549 	488 	633
f 632 	482 	631
f 496 	338 	484
f 627 	594 	598
f 627 	598 	628
f 455 	487 	497
f 358 	356 	566
f 358 	566 	565
f 143 	468 	472
f 496 	502 	341
f 620 	619 	213
f 200 	213 	619
f 196 	200 	619
f 213 	216 	620
f 619 	617 	196
f 216 	124 	620
f 594 	591 	519
f 193 	196 	617
f 188 	193 	617
f 601 	629 	598
f 628 	598 	629
f 414 	618 	497
f 568 	566 	355
f 356 	355 	566
f 502 	510 	341
f 167 	162 	636
f 152 	384 	388
f 629 	601 	606
f 629 	606 	630
f 151 	477 	479
f 355 	354 	569
f 355 	569 	568
f 394 	152 	388
f 638 	172 	637
f 608 	631 	606
f 630 	606 	631
f 570 	569 	353
f 354 	353 	569
f 362 	351 	522
f 635 	155 	634
f 164 	490 	498
f 522 	368 	362
f 170 	400 	403
f 631 	608 	609
f 640 	187 	639
f 637 	167 	636
f 239 	551 	610
f 164 	498 	504
f 641 	195 	640
f 278 	337 	511
f 414 	618 	348
f 157 	517 	403
f 261 	244 	451
f 529 	538 	368
f 621 	123 	642
f 639 	177 	638
f 69 	504 	432
f 337 	336 	511
f 310 	314 	348
f 357 	348 	314
f 269 	261 	451
f 374 	368 	538
f 276 	269 	451
f 288 	276 	451
f 336 	335 	528
f 367 	357 	318
f 314 	318 	357
f 642 	212 	641
f 623 	146 	622
f 622 	137 	621
f 624 	470 	623
f 626 	482 	625
f 635 	636 	162
f 162 	155 	635
f 553 	381 	538
f 335 	333 	528
f 318 	326 	372
f 318 	372 	367
f 451 	294 	288
f 243 	251 	651
f 372 	26 	33
f 635 	634 	612
f 645 	649 	644
f 646 	649 	645
f 647 	649 	646
f 644 	650 	643
f 6 	365 	32
f 7 	360 	6
f 294 	451 	301
f 447 	317 	451
f 251 	652 	651
f 470 	343 	509
f 387 	509 	343
f 612 	613 	635
f 636 	635 	613
f 301 	451 	311
f 311 	451 	317
f 331 	330 	542
f 266 	653 	652
f 129 	132 	310
f 618 	129 	348
f 614 	636 	613
f 648 	649 	647
f 330 	329 	542
f 653 	266 	270
f 343 	352 	401
f 343 	401 	387
f 28 	523 	20
f 20 	549 	633
f 317 	367 	324
f 324 	33 	339
f 84 	521 	73
f 95 	527 	90
f 413 	543 	429
f 90 	527 	84
f 339 	54 	515
f 31 	513 	28
f 638 	615 	616
f 32 	270 	286
f 491 	489 	41
f 352 	370 	401
f 640 	616 	617
f 289 	6 	286
f 32 	286 	6
f 54 	339 	33
f 33 	324 	372
f 367 	317 	357
f 372 	324 	367
f 435 	574 	571
f 43 	491 	41
f 40 	41 	489
f 619 	640 	617
f 6 	289 	295
f 6 	295 	7
f 574 	435 	580
f 434 	580 	435
f 408 	129 	618
f 468 	135 	554
f 434 	586 	580
f 298 	34 	295
f 7 	295 	34
f 348 	357 	441
f 322 	321 	548
f 129 	618 	441
f 414 	441 	618
f 24 	589 	586
f 621 	620 	567
f 34 	298 	307
f 34 	307 	49
f 96 	495 	106
f 106 	501 	116
f 92 	485 	96
f 87 	481 	92
f 76 	481 	87
f 116 	501 	122
f 143 	472 	477
f 455 	497 	129
f 408 	497 	401
f 497 	487 	401
f 587 	584 	519
f 406 	562 	593
f 396 	562 	406
f 313 	58 	307
f 49 	307 	58
f 404 	129 	441
f 411 	348 	441
f 441 	357 	443
f 443 	357 	317
f 622 	621 	572
f 407 	593 	596
f 151 	479 	486
f 443 	317 	447
f 443 	410 	441
f 404 	441 	410
f 623 	622 	572
f 476 	70 	469
f 407 	596 	599
f 407 	599 	409
f 91 	334 	340
f 443 	447 	410
f 409 	599 	602
f 624 	623 	584
f 340 	344 	91
f 97 	91 	344
f 416 	451 	427
f 51 	604 	467
f 602 	605 	11
f 164 	504 	173
f 606 	601 	519
f 485 	92 	481
f 62 	51 	467
f 108 	97 	344
f 108 	344 	347
f 625 	624 	584
f 591 	587 	519
f 495 	96 	485
f 605 	16 	11
f 519 	482 	465
f 69 	173 	504
f 626 	625 	591
f 487 	471 	584
f 347 	349 	108
f 119 	108 	349
f 508 	122 	501
f 589 	24 	16
f 185 	30 	515
f 401 	487 	584
f 626 	591 	627
f 487 	437 	471
f 411 	497 	408
f 134 	473 	263
f 315 	263 	473
f 521 	189 	515
f 128 	119 	349
f 128 	349 	359
f 465 	451 	519
f 451 	609 	519
f 465 	431 	451
f 427 	451 	431
f 319 	315 	473
f 192 	521 	527
f 501 	106 	495
f 634 	127 	508
f 70 	476 	76
f 122 	508 	127
f 133 	128 	366
f 359 	366 	128
f 449 	437 	487
f 194 	192 	527
f 194 	527 	532
f 471 	519 	584
f 601 	598 	519
f 584 	578 	509
f 509 	387 	584
f 525 	581 	517
f 575 	570 	377
f 377 	570 	353
f 371 	139 	366
f 133 	366 	139
f 532 	536 	194
f 10 	194 	536
f 376 	576 	575
f 376 	575 	377
f 487 	455 	449
f 328 	484 	338
f 530 	585 	525
f 517 	581 	170
f 373 	577 	576
f 373 	576 	376
f 378 	145 	371
f 139 	371 	145
f 9 	10 	536
f 9 	536 	543
f 618 	129 	497
f 496 	341 	338
f 211 	577 	373
f 539 	588 	530
f 631 	609 	632
f 583 	380 	579
f 543 	552 	9
f 18 	9 	552
f 550 	588 	539
f 147 	146 	509
f 470 	509 	146
f 579 	380 	291
f 384 	145 	378
f 573 	448 	600
f 42 	22 	493
f 633 	632 	609
f 633 	609 	610
f 583 	500 	383
f 297 	383 	500
f 552 	554 	18
f 29 	18 	554
f 583 	383 	380
f 603 	600 	448
f 22 	5 	494
f 494 	493 	22
f 351 	345 	516
f 431 	465 	482
f 21 	633 	610
f 506 	494 	5
f 519 	471 	482
f 514 	506 	8
f 5 	8 	506
f 604 	603 	453
f 516 	522 	351
f 29 	554 	135
f 394 	158 	152
f 524 	514 	23
f 8 	23 	514
f 534 	524 	21
f 23 	21 	524
f 143 	135 	468
f 499 	488 	239
f 559 	573 	597
f 448 	453 	603
f 453 	467 	604
f 467 	469 	62
f 481 	76 	476
f 62 	469 	70
f 148 	143 	477
f 512 	507 	276
f 151 	148 	477
f 637 	636 	614
f 276 	288 	512
f 518 	512 	288
f 182 	188 	616
f 374 	538 	381
f 288 	294 	518
f 526 	518 	294
f 153 	151 	486
f 638 	637 	614
f 531 	526 	294
f 553 	385 	381
f 617 	616 	188
f 486 	490 	153
f 159 	153 	490
f 555 	590 	550
f 600 	597 	573
f 597 	595 	559
f 557 	559 	595
f 595 	592 	557
f 555 	557 	592
f 590 	555 	592
f 588 	550 	590
f 585 	530 	588
f 581 	525 	585
f 582 	170 	581
f 639 	638 	616
f 537 	531 	311
f 389 	385 	558
f 313 	85 	58
f 640 	639 	616
f 490 	164 	159
f 27 	537 	311
f 567 	620 	124
f 334 	91 	85
f 558 	396 	389
f 641 	640 	619
f 124 	131 	567
f 648 	660 	649
f 131 	138 	567
f 619 	620 	641
f 642 	641 	620
f 651 	284 	650
f 572 	567 	138
f 138 	142 	572
f 240 	243 	649
f 650 	649 	243
f 571 	245 	436
f 620 	621 	642
f 142 	147 	572
f 436 	435 	571
f 653 	333 	652
f 650 	644 	649
f 648 	647 	654
f 651 	650 	243
f 578 	572 	147
f 147 	509 	578
f 185 	515 	189
f 647 	646 	655
f 647 	655 	654
f 192 	189 	521
f 646 	645 	656
f 646 	656 	655
f 657 	329 	653
f 652 	279 	651
f 434 	433 	586
f 645 	644 	658
f 645 	658 	656
f 321 	322 	32
f 606 	519 	608
f 608 	519 	609
f 451 	244 	609
f 433 	24 	586
f 644 	643 	659
f 644 	659 	658
f 68 	611 	144
f 657 	653 	270
f 438 	659 	643
f 32 	657 	270
f 491 	43 	42
f 406 	593 	407
f 68 	156 	611
f 409 	602 	412
f 240 	649 	660
f 412 	602 	11
f 648 	654 	660
f 156 	163 	612
f 612 	611 	156
f 163 	168 	613
f 613 	612 	163
f 633 	21 	20
f 168 	174 	614
f 614 	613 	168
f 615 	614 	174
f 178 	182 	616
f 616 	615 	178
f 174 	178 	615
f 659 	438 	243
f 438 	440 	243
f 658 	659 	243
f 270 	266 	544
f 243 	240 	658
f 243 	440 	251
f 660 	654 	240
f 655 	240 	654
f 244 	239 	609
f 610 	609 	239
f 21 	610 	551
# 1324 faces

 #end of obj_0

