# Object Export From Tinkercad Server 2015

mtllib obj.mtl

o obj_0
v -29.435 		6.657 		0
v -29.435 		6.657 		10
v -29.435 		12.349 		10
v -29.435 		12.349 		0
v 16.727 		27.42 		0
v 17.201 		26.974 		0
v 17.639 		26.509 		0
v 18.045 		26.006 		0
v 8.269 		-5.979 		0
v 18.414 		25.471 		0
v 18.746 		24.906 		0
v 5.306 		3.781 		10
v 5.446 		4.052 		10
v 8.587 		-6.015 		0
v 5.178 		3.5 		10
v 5.061 		3.207 		10
v 4.955 		2.9 		10
v 19.039 		24.31 		0
v 19.293 		23.69 		0
v 19.508 		23.058 		0
v 19.685 		22.404 		0
v 4.859 		2.58 		10
v 19.822 		21.731 		0
v 6.055 		18.066 		0
v 19.919 		21.04 		0
v 19.977 		20.333 		0
v 19.996 		19.609 		0
v 19.982 		19.039 		0
v 19.938 		18.485 		0
v 6.128 		17.785 		0
v 19.864 		17.947 		0
v 19.76 		17.426 		0
v 19.624 		16.922 		0
v 19.463 		16.452 		0
v 9.9757 		13.895 		0
v 9.635 		14.092 		0
v 9.9757 		13.895 		2.048
v 4.774 		2.247 		10
v 12.426 		29.543 		0
v 13.148 		29.349 		0
v 6.223 		17.518 		0
v 12.108 		-4.512 		0
v 10.106 		13.991 		0
v 13.833 		29.111 		0
v 11.914 		-4.739 		0
v 14.474 		28.848 		0
v 15.086 		28.547 		0
v 15.666 		28.209 		0
v 16.214 		27.833 		0
v 16.109 		-9.294 		0
v 15.42 		-9.645 		0
v 14.696 		-9.956 		0
v 13.93 		-10.233 		0
v 13.129 		-10.456 		0
v 12.302 		-10.637 		0
v 11.445 		-10.777 		0
v 6.336 		17.248 		0
v 10.556 		-10.876 		0
v 9.635 		-10.936 		0
v 8.683 		-10.955 		0
v 12.28 		-4.27 		0
v 4.701 		1.903 		10
v 9.863 		13.812 		0
v 10.2 		24.596 		0
v 4.642 		1.546 		10
v 9.984 		24.695 		0
v 4.534 		-0.027 		0
v 6.464 		16.989 		0
v 9.98 		13.892 		0
v 9.752 		24.774 		0
v 4.595 		1.174 		10
v 9.504 		24.832 		0
v 4.544 		-0.498 		0
v 4.561 		0.788 		10
v 9.237 		24.868 		0
v 4.541 		0.387 		10
v 8.919 		-6.027 		0
v 6.604 		16.741 		0
v 4.571 		-0.948 		0
v 9.264 		-6.015 		0
v 4.617 		-1.378 		0
v 6.759 		16.504 		0
v 8.951 		24.88 		0
v 4.681 		-1.789 		0
v 8.707 		24.87 		0
v 9.591 		-5.982 		0
v 8.477 		24.84 		0
v 4.762 		-2.18 		0
v 8.261 		24.791 		0
v 10.333 		14.172 		0
v 9.901 		-5.928 		0
v 4.861 		-2.559 		0
v 16.715 		12.575 		0
v 8.248 		29.861 		0
v 9.253 		29.885 		0
v 10.09 		29.864 		0
v 16.715 		12.575 		10
v 10.897 		29.801 		0
v 11.676 		29.694 		0
v 10.194 		-5.854 		0
v 4.977 		-2.933 		0
v 12.4 		20.684 		0
v 17.075 		12.904 		0
v 12.349 		21.007 		0
v 17.075 		12.904 		10
v 5.106 		-3.282 		0
v 17.419 		13.242 		0
v 17.419 		13.242 		10
v 5.247 		-3.609 		0
v 17.745 		13.587 		0
v 5.401 		-3.913 		0
v 17.745 		13.587 		10
v 10 		13.881 		0
v 21.41 		-0.372 		10
v 12.283 		21.33 		0
v 12.199 		21.667 		0
v 18.064 		13.951 		0
v 18.064 		13.951 		10
v 16.763 		-8.905 		10
v 17.38 		-8.477 		10
v 12.111 		21.992 		0
v 17.964 		-8.007 		10
v 18.498 		-7.494 		10
v 18.988 		-6.945 		10
v 19.436 		-6.358 		10
v 19.841 		-5.732 		10
v 18.357 		14.335 		0
v 12.015 		22.283 		0
v 20.202 		-5.069 		10
v 18.357 		14.335 		10
v 20.518 		-4.374 		10
v 20.799 		-3.631 		10
v 21.029 		-2.856 		10
v 21.208 		-2.053 		10
v 21.335 		-1.225 		10
v 11.907 		22.559 		0
v 18.624 		14.73 		0
v 11.785 		22.82 		0
v 15.089 		11.346 		0
v 18.624 		14.73 		10
v 8.683 		-10.955 		10
v 12.446 		-4.001 		10
v 11.65 		23.068 		0
v 5.567 		-4.197 		0
v 11.49 		23.322 		0
v 18.869 		15.14 		0
v 18.869 		15.14 		10
v 15.513 		11.634 		0
v 12.598 		-3.714 		10
v 11.327 		23.57 		0
v 5.74 		-4.451 		0
v 11.166 		23.782 		0
v 9.635 		-10.936 		10
v 19.091 		15.566 		0
v 12.738 		-3.408 		10
v 19.091 		15.566 		10
v 15.937 		11.933 		0
v 10.994 		23.978 		0
v 10.81 		24.158 		0
v 10.556 		-10.876 		10
v 12.865 		-3.082 		10
v 5.934 		-4.687 		0
v 10.613 		24.324 		0
v 19.29 		16.006 		0
v 19.29 		16.006 		10
v 16.339 		12.254 		0
v 10.408 		24.472 		0
v 11.445 		-10.777 		10
v 12.979 		-2.737 		10
v 6.147 		-4.911 		0
v 13.077 		-2.377 		10
v 12.302 		-10.637 		10
v 12.46 		19.314 		0
v 12.466 		19.717 		0
v 6.371 		-5.115 		0
v 18.31 		8.192 		0
v 17.867 		8.623 		0
v 13.157 		-2.005 		10
v 13.129 		-10.456 		10
v 16.368 		9.874 		0
v 6.607 		-5.3 		0
v 17.867 		8.623 		10
v 18.31 		8.192 		10
v 12.458 		20.043 		0
v 13.22 		-1.619 		10
v 12.436 		20.363 		0
v 17.397 		9.046 		0
v 6.856 		-5.466 		0
v 17.397 		9.046 		10
v 13.266 		-1.218 		10
v 13.93 		-10.233 		10
v 16.897 		9.462 		0
v 16.897 		9.462 		10
v 7.118 		-5.613 		0
v 11.975 		16.474 		0
v 13.293 		-0.803 		10
v 12.067 		16.735 		0
v 14.696 		-9.956 		10
v 7.39 		-5.738 		0
v 15.807 		10.283 		0
v 12.149 		17.004 		0
v 13.302 		-0.375 		10
v 7.671 		-5.841 		0
v 13.292 		-0.006 		10
v 15.42 		-9.645 		10
v 12.222 		17.282 		0
v 7.964 		-5.921 		0
v 12.285 		17.565 		0
v 16.109 		-9.294 		10
v 15.214 		10.69 		0
v 12.339 		17.873 		0
v 21.435 		0.503 		0
v 21.435 		0.503 		10
v 12.384 		18.204 		0
v 14.651 		11.059 		0
v 12.419 		18.554 		0
v 21.422 		1.086 		0
v 21.422 		1.086 		10
v 14.6484 		11.0574 		4.096
v 14.6484 		11.0574 		0
v 12.445 		18.925 		0
v 21.382 		1.657 		0
v 4.534 		-0.027 		10
v 21.382 		1.657 		10
v 8.056 		24.725 		0
v 7.863 		24.64 		0
v 4.544 		-0.498 		10
v 21.315 		2.218 		0
v 21.315 		2.218 		10
v 7.7 		-10.932 		0
v 6.758 		-10.863 		0
v 5.857 		-10.746 		0
v 4.996 		-10.581 		0
v 4.177 		-10.367 		0
v 3.404 		-10.106 		0
v 2.668 		-9.807 		0
v 1.972 		-9.474 		0
v 1.315 		-9.107 		0
v 0.696 		-8.704 		0
v 4.571 		-0.948 		10
v 0.118 		-8.266 		0
v 21.222 		2.77 		0
v 21.222 		2.77 		10
v 0.317 		26.651 		0
v 0.816 		27.134 		0
v 1.356 		27.578 		0
v 1.938 		27.985 		0
v 2.56 		28.356 		0
v 3.223 		28.692 		0
v 3.927 		28.993 		0
v 4.693 		29.267 		0
v 5.513 		29.492 		0
v 6.379 		29.665 		0
v 7.291 		29.788 		0
v 21.101 		3.311 		0
v 21.101 		3.311 		10
v 7.4267 		6.4364 		6.144
v 4.617 		-1.378 		10
v 10.47 		-5.759 		10
v 20.953 		3.841 		0
v 20.953 		3.841 		10
v 7.677 		24.536 		0
v 10.726 		-5.647 		10
v 7.495 		24.413 		0
v 20.777 		4.362 		0
v 20.777 		4.362 		10
v 10.984 		-5.503 		10
v 14.589 		11.096 		0
v 7.321 		24.273 		0
v -2.149 		17.081 		0
v -2.283 		18.153 		0
v -2.327 		19.256 		0
v -2.311 		19.927 		0
v -2.262 		20.585 		0
v -2.181 		21.239 		0
v 4.681 		-1.789 		10
v 7.158 		24.119 		0
v -2.068 		21.888 		0
v 11.236 		-5.338 		10
v 20.573 		4.875 		0
v -1.923 		22.532 		0
v 20.573 		4.875 		10
v 7.4267 		6.4364 		4.096
v -1.74 		23.187 		0
v -1.503 		23.827 		0
v 13.932 		11.501 		0
v -1.224 		24.438 		0
v 7.004 		23.95 		0
v -0.903 		25.026 		0
v -0.539 		25.589 		0
v -0.135 		26.129 		0
v 11.474 		-5.156 		10
v 20.34 		5.378 		0
v 6.858 		23.764 		0
v 4.762 		-2.18 		10
v 20.34 		5.378 		10
v 14.051 		11.054 		0
v 6.72 		23.559 		0
v 11.7 		-4.957 		10
v 13.73 		10.486 		0
v 20.081 		5.872 		0
v 20.081 		5.872 		10
v 6.589 		23.335 		0
v 4.861 		-2.559 		10
v -16.149 		21.824 		0
v 11.914 		-4.739 		10
v 6.467 		23.096 		0
v 19.794 		6.356 		0
v -21.169 		21.824 		0
v 19.794 		6.356 		10
v 6.354 		22.841 		0
v 12.108 		-4.512 		10
v 6.251 		22.571 		0
v 4.977 		-2.933 		10
v 19.472 		6.843 		0
v 12.28 		-4.27 		10
v 19.472 		6.843 		10
v -0.126 		12.416 		0
v -0.7 		13.246 		0
v -1.196 		14.128 		0
v -1.605 		15.065 		0
v -1.923 		16.051 		0
v 14.198 		10.772 		0
v 5.106 		-3.282 		10
v 6.158 		22.284 		0
v 19.108 		7.308 		0
v 19.108 		7.308 		10
v 6.079 		21.996 		0
v 8.919 		-6.027 		10
v -16.149 		12.349 		0
v 5.247 		-3.609 		10
v 8.587 		-6.015 		10
v 18.723 		7.754 		0
v 18.723 		7.754 		10
v 6.019 		21.693 		0
v -7.815 		12.349 		0
v 5.967 		21.359 		0
v 9.264 		-6.015 		10
v 5.926 		21.01 		0
v 5.401 		-3.913 		10
v 6.936 		16.267 		10
v 9.591 		-5.982 		10
v 5.897 		20.646 		0
v 9.901 		-5.928 		10
v 7.129 		16.025 		10
v 10.194 		-5.854 		10
v -2.7 		4.127 		0
v -2.476 		4.614 		0
v -2.227 		5.084 		0
v -1.953 		5.537 		0
v -1.655 		5.973 		0
v -1.339 		6.384 		0
v 7.333 		15.797 		10
v 5.879 		20.268 		0
v -1.003 		6.789 		0
v 5.873 		19.877 		0
v -0.642 		7.184 		0
v 8.328 		14.952 		10
v -0.26 		7.564 		0
v 7.554 		15.577 		10
v 5.88 		19.469 		0
v 5.567 		-4.197 		10
v 5.903 		19.084 		0
v -7.815 		6.657 		0
v 8.635 		14.733 		10
v 7.79 		15.365 		10
v 5.94 		18.722 		0
v 8.269 		-5.979 		10
v 5.74 		-4.451 		10
v 5.991 		18.383 		0
v 8.044 		15.159 		10
v 8.953 		14.518 		10
v 5.934 		-4.687 		10
v -3.432 		0.16 		0
v -3.417 		0.777 		0
v -3.374 		1.376 		0
v -3.302 		1.959 		0
v -3.2 		2.524 		0
v -3.068 		3.073 		0
v -2.904 		3.611 		0
v 6.147 		-4.911 		10
v 1.879 		9.247 		10
v -16.149 		6.657 		0
v 6.371 		-5.115 		10
v 1.425 		8.923 		10
v 10.545 		14.355 		10
v -21.169 		12.349 		0
v -21.169 		6.657 		0
v 0.994 		8.6 		10
v 6.607 		-5.3 		10
v 10.74 		14.539 		10
v 0.565 		8.277 		10
v 6.856 		-5.466 		10
v 10.92 		14.724 		10
v -0.428 		-7.785 		0
v -0.919 		-7.256 		0
v -1.361 		-6.702 		0
v 7.118 		-5.613 		10
v -1.76 		-6.116 		0
v -2.117 		-5.498 		0
v -2.431 		-4.85 		0
v 0.518 		11.625 		10
v -2.699 		-4.175 		0
v -2.924 		-3.483 		0
v 11.085 		14.911 		10
v 7.39 		-5.738 		10
v 11.239 		15.106 		10
v -3.107 		-2.779 		0
v -3.249 		-2.062 		0
v 2.35 		9.566 		10
v -3.351 		-1.333 		0
v -3.411 		-0.591 		0
v 7.671 		-5.841 		10
v -16.149 		-2.818 		0
v -21.169 		-2.818 		0
v 11.384 		15.31 		10
v 7.964 		-5.921 		10
v 1.236 		10.87 		10
v 8.328 		14.952 		0
v 18.746 		24.906 		10
v 18.414 		25.471 		10
v 18.045 		26.006 		10
v 17.639 		26.509 		10
v 11.52 		15.523 		10
v 17.201 		26.974 		10
v 16.727 		27.42 		10
v 8.635 		14.733 		0
v 8.953 		14.518 		0
v 2.024 		10.15 		10
v 11.647 		15.746 		10
v 10.545 		14.355 		0
v 2.5743 		9.7104 		8.192
v 2.5743 		9.7104 		10
v 10.74 		14.539 		0
v 11.765 		15.979 		10
v 10.92 		14.724 		0
v 11.085 		14.911 		0
v 19.76 		17.426 		10
v 19.864 		17.947 		10
v 19.938 		18.485 		10
v 11.239 		15.106 		0
v 19.982 		19.039 		10
v 19.996 		19.609 		10
v 11.875 		16.222 		10
v 19.977 		20.333 		10
v 19.919 		21.04 		10
v 19.822 		21.731 		10
v 19.685 		22.404 		10
v 11.384 		15.31 		0
v 19.508 		23.058 		10
v 19.293 		23.69 		10
v 19.039 		24.31 		10
v 11.52 		15.523 		0
v 19.463 		16.452 		10
v 2.884 		9.463 		10
v 19.624 		16.922 		10
v 11.647 		15.746 		0
v 11.765 		15.979 		0
v 3.05 		9.69 		10
v 9.286 		14.305 		10
v 11.875 		16.222 		0
v 14.474 		28.848 		10
v 3.339 		10.188 		10
v 13.833 		29.111 		10
v 13.148 		29.349 		10
v 12.426 		29.543 		10
v 9.635 		14.092 		10
v 9.286 		14.305 		0
v 9.9757 		13.895 		8.192
v 2.836 		9.879 		10
v 16.214 		27.833 		10
v 15.666 		28.209 		10
v 15.086 		28.547 		10
v 9.9757 		13.895 		10
v 10.2 		24.596 		10
v 10.106 		13.991 		10
v 9.863 		13.812 		10
v 9.984 		24.695 		10
v 9.752 		24.774 		10
v 9.98 		13.892 		10
v 9.504 		24.832 		10
v 9.237 		24.868 		10
v 8.951 		24.88 		10
v 8.707 		24.87 		10
v 8.477 		24.84 		10
v 7.7 		-10.932 		10
v 10.333 		14.172 		10
v 0.118 		-8.266 		10
v 0.696 		-8.704 		10
v 1.315 		-9.107 		10
v 1.972 		-9.474 		10
v 2.668 		-9.807 		10
v 8.261 		24.791 		10
v 3.404 		-10.106 		10
v 4.177 		-10.367 		10
v 4.996 		-10.581 		10
v 5.857 		-10.746 		10
v 6.758 		-10.863 		10
v 9.253 		29.885 		10
v 8.248 		29.861 		10
v 11.676 		29.694 		10
v 10.897 		29.801 		10
v 10.09 		29.864 		10
v 10 		13.881 		10
v 12.4 		20.684 		10
v -0.135 		26.129 		10
v -0.539 		25.589 		10
v 6.936 		16.267 		0
v -0.903 		25.026 		10
v -1.224 		24.438 		10
v 7.129 		16.025 		0
v -1.503 		23.827 		10
v -1.74 		23.187 		10
v 12.349 		21.007 		10
v -1.923 		22.532 		10
v -2.068 		21.888 		10
v -2.181 		21.239 		10
v 15.089 		11.346 		10
v -2.262 		20.585 		10
v -2.311 		19.927 		10
v 7.333 		15.797 		0
v -2.327 		19.256 		10
v -2.283 		18.153 		10
v -2.149 		17.081 		10
v 7.554 		15.577 		0
v 7.79 		15.365 		0
v 8.044 		15.159 		0
v 15.513 		11.634 		10
v -16.149 		21.824 		10
v -21.169 		21.824 		10
v 15.937 		11.933 		10
v 12.283 		21.33 		10
v 16.339 		12.254 		10
v 0.565 		8.277 		0
v 0.994 		8.6 		0
v 1.425 		8.923 		0
v 1.879 		9.247 		0
v -1.923 		16.051 		10
v -1.605 		15.065 		10
v 12.199 		21.667 		10
v -1.196 		14.128 		10
v -0.7 		13.246 		10
v -0.126 		12.416 		10
v 2.35 		9.566 		0
v 12.111 		21.992 		10
v -16.149 		12.349 		10
v 2.5743 		9.7104 		0
v 2.884 		9.463 		0
v 16.368 		9.874 		10
v -7.815 		12.349 		10
v 3.05 		9.69 		0
v 12.015 		22.283 		10
v 3.339 		10.188 		0
v 11.907 		22.559 		10
v 2.836 		9.879 		0
v 2.024 		10.15 		0
v 1.236 		10.87 		0
v 15.807 		10.283 		10
v 0.518 		11.625 		0
v 11.785 		22.82 		10
v -0.26 		7.564 		10
v -0.642 		7.184 		10
v 10.756 		4.341 		0
v 11.65 		23.068 		10
v -1.003 		6.789 		10
v 10.393 		4.609 		0
v -1.339 		6.384 		10
v -1.655 		5.973 		10
v -1.953 		5.537 		10
v 11.49 		23.322 		10
v 9.997 		4.881 		0
v -2.227 		5.084 		10
v -2.476 		4.614 		10
v 15.214 		10.69 		10
v -2.7 		4.127 		10
v 9.569 		5.168 		0
v 2.5743 		9.7104 		4.096
v 9.116 		5.458 		0
v 11.327 		23.57 		10
v 8.631 		5.753 		0
v 14.651 		11.059 		10
v 14.6484 		11.0574 		10
v -7.815 		6.657 		10
v 14.6484 		11.0574 		8.192
v 11.166 		23.782 		10
v 10.994 		23.978 		10
v -2.904 		3.611 		10
v -3.068 		3.073 		10
v 13.264 		0.343 		0
v -3.2 		2.524 		10
v -3.302 		1.959 		10
v -3.374 		1.376 		10
v -3.417 		0.777 		10
v -3.432 		0.16 		10
v 10.81 		24.158 		10
v 13.217 		0.675 		0
v 10.613 		24.324 		10
v 13.153 		0.989 		0
v -16.149 		6.657 		10
v 14.589 		11.096 		10
v 13.071 		1.286 		0
v 10.408 		24.472 		10
v 12.966 		1.589 		0
v 12.849 		1.891 		0
v 13.932 		11.501 		10
v -21.169 		6.657 		10
v -21.169 		12.349 		10
v 12.718 		2.17 		0
v 14.051 		11.054 		10
v 13.73 		10.486 		10
v 12.564 		2.446 		0
v 12.466 		19.717 		10
v 12.46 		19.314 		10
v 12.385 		2.718 		0
v 12.182 		2.988 		0
v 12.458 		20.043 		10
v 11.951 		3.257 		0
v 11.692 		3.528 		0
v 12.436 		20.363 		10
v -2.924 		-3.483 		10
v -2.699 		-4.175 		10
v -2.431 		-4.85 		10
v -2.117 		-5.498 		10
v -1.76 		-6.116 		10
v -1.361 		-6.702 		10
v -0.919 		-7.256 		10
v 11.405 		3.8 		0
v 11.093 		4.071 		0
v 14.198 		10.772 		10
v -0.428 		-7.785 		10
v 11.975 		16.474 		10
v -3.411 		-0.591 		10
v -3.351 		-1.333 		10
v 8.116 		6.053 		0
v 12.067 		16.735 		10
v -3.249 		-2.062 		10
v -3.107 		-2.779 		10
v 7.57 		6.359 		0
v 7.4267 		6.4364 		0
v -16.149 		-2.818 		10
v 12.149 		17.004 		10
v 7.573 		6.558 		0
v -21.169 		-2.818 		10
v 12.222 		17.282 		10
v 7.348 		6.371 		0
v 7.42 		6.44 		0
v 12.285 		17.565 		10
v 7.129 		6.174 		0
v 12.339 		17.873 		10
v 6.914 		5.967 		0
v 6.703 		5.75 		0
v 6.492 		5.516 		0
v 12.384 		18.204 		10
v 6.289 		5.287 		0
v 12.419 		18.554 		10
v 6.105 		5.059 		0
v 5.928 		4.822 		0
v 12.445 		18.925 		10
v 5.759 		4.574 		0
v 5.598 		4.317 		0
v 8.056 		24.725 		10
v 0.143 		7.928 		0
v 7.863 		24.64 		10
v 5.446 		4.052 		0
v 5.306 		3.781 		0
v 7.291 		29.788 		10
v 5.178 		3.5 		0
v 6.379 		29.665 		10
v 5.513 		29.492 		10
v 4.693 		29.267 		10
v 3.927 		28.993 		10
v 5.061 		3.207 		0
v 3.223 		28.692 		10
v 2.56 		28.356 		10
v 1.938 		27.985 		10
v 1.356 		27.578 		10
v 4.955 		2.9 		0
v 0.816 		27.134 		10
v 0.317 		26.651 		10
v 4.859 		2.58 		0
v 4.774 		2.247 		0
v 4.701 		1.903 		0
v 4.642 		1.546 		0
v 4.595 		1.174 		0
v 4.561 		0.788 		0
v 4.541 		0.387 		0
v 7.677 		24.536 		10
v 7.495 		24.413 		10
v 7.321 		24.273 		10
v 21.41 		-0.372 		0
v 21.335 		-1.225 		0
v 21.208 		-2.053 		0
v 21.029 		-2.856 		0
v 20.799 		-3.631 		0
v 20.518 		-4.374 		0
v 20.202 		-5.069 		0
v 19.841 		-5.732 		0
v 19.436 		-6.358 		0
v 18.988 		-6.945 		0
v 18.498 		-7.494 		0
v 17.964 		-8.007 		0
v 17.38 		-8.477 		0
v 16.763 		-8.905 		0
v 7.158 		24.119 		10
v 12.446 		-4.001 		0
v 7.004 		23.95 		10
v 12.598 		-3.714 		0
v 12.738 		-3.408 		0
v 12.865 		-3.082 		0
v 6.858 		23.764 		10
v 12.979 		-2.737 		0
v 13.077 		-2.377 		0
v 6.72 		23.559 		10
v 13.157 		-2.005 		0
v 13.22 		-1.619 		0
v 6.589 		23.335 		10
v 13.266 		-1.218 		0
v 13.293 		-0.803 		0
v 6.467 		23.096 		10
v 13.302 		-0.375 		0
v 13.292 		-0.006 		0
v 6.354 		22.841 		10
v 6.251 		22.571 		10
v 10.756 		4.341 		10
v 10.393 		4.609 		10
v 9.9757 		13.895 		6.144
v 9.997 		4.881 		10
v 6.158 		22.284 		10
v 10.47 		-5.759 		0
v 6.079 		21.996 		10
v 10.726 		-5.647 		0
v 9.569 		5.168 		10
v 10.984 		-5.503 		0
v 6.019 		21.693 		10
v 11.236 		-5.338 		0
v 9.116 		5.458 		10
v 5.967 		21.359 		10
v 11.474 		-5.156 		0
v 8.631 		5.753 		10
v 11.7 		-4.957 		0
v 5.926 		21.01 		10
v 5.897 		20.646 		10
v 13.264 		0.343 		10
v 13.217 		0.675 		10
v 13.153 		0.989 		10
v 5.879 		20.268 		10
v 5.873 		19.877 		10
v 13.071 		1.286 		10
v 5.88 		19.469 		10
v 12.966 		1.589 		10
v 5.903 		19.084 		10
v 5.94 		18.722 		10
v 12.849 		1.891 		10
v 5.991 		18.383 		10
v 12.718 		2.17 		10
v 6.055 		18.066 		10
v 6.128 		17.785 		10
v 12.564 		2.446 		10
v 6.223 		17.518 		10
v 12.385 		2.718 		10
v 6.336 		17.248 		10
v 6.464 		16.989 		10
v 12.182 		2.988 		10
v 6.604 		16.741 		10
v 6.759 		16.504 		10
v 11.951 		3.257 		10
v 11.692 		3.528 		10
v 11.405 		3.8 		10
v 11.093 		4.071 		10
v 9.9757 		13.895 		4.096
v 8.116 		6.053 		10
v 7.57 		6.359 		10
v 7.4267 		6.4364 		10
v 7.4267 		6.4364 		8.192
v 7.348 		6.371 		10
v 7.573 		6.558 		10
v 7.129 		6.174 		10
v 7.42 		6.44 		10
v 6.914 		5.967 		10
v 6.703 		5.75 		10
v 6.492 		5.516 		10
v 6.289 		5.287 		10
v 6.105 		5.059 		10
v 5.928 		4.822 		10
v 5.759 		4.574 		10
v 5.598 		4.317 		10
v 0.143 		7.928 		10
# 787 vertices

g group_0_15277357

usemtl color_15277357
s 0

f 1 	2 	3
f 1 	3 	4
f 8 	138 	7
f 10 	136 	8
f 11 	128 	10
f 7 	138 	6
f 14 	77 	60
f 60 	230 	14
f 13 	786 	455
f 455 	410 	13
f 410 	382 	13
f 19 	116 	18
f 20 	115 	19
f 21 	115 	20
f 23 	104 	21
f 25 	102 	23
f 26 	184 	25
f 27 	174 	26
f 28 	173 	27
f 29 	173 	28
f 31 	221 	29
f 32 	216 	31
f 33 	216 	32
f 35 	36 	37
f 43 	35 	37
f 152 	158 	47
f 47 	48 	152
f 48 	49 	150
f 49 	5 	145
f 143 	145 	5
f 5 	6 	143
f 44 	163 	40
f 40 	167 	39
f 87 	94 	85
f 52 	740 	51
f 53 	738 	52
f 54 	733 	53
f 55 	731 	54
f 56 	729 	55
f 58 	91 	56
f 50 	51 	45
f 385 	389 	13
f 37 	63 	35
f 66 	99 	64
f 392 	787 	13
f 70 	99 	66
f 75 	96 	72
f 79 	411 	73
f 81 	409 	79
f 80 	77 	338
f 83 	95 	75
f 72 	98 	70
f 85 	94 	83
f 338 	342 	80
f 73 	412 	67
f 89 	254 	87
f 96 	75 	95
f 98 	72 	96
f 99 	70 	98
f 39 	64 	99
f 95 	83 	94
f 225 	253 	89
f 84 	408 	81
f 104 	23 	102
f 103 	105 	97
f 103 	97 	93
f 92 	401 	88
f 107 	108 	105
f 107 	105 	103
f 106 	399 	101
f 115 	21 	104
f 34 	214 	33
f 110 	112 	108
f 110 	108 	107
f 116 	121 	18
f 116 	19 	115
f 117 	118 	112
f 117 	112 	110
f 11 	18 	121
f 127 	130 	118
f 127 	118 	117
f 125 	126 	161
f 126 	129 	169
f 171 	169 	129
f 178 	171 	131
f 131 	132 	178
f 133 	185 	132
f 134 	190 	133
f 135 	196 	134
f 114 	202 	135
f 136 	10 	128
f 144 	241 	111
f 396 	109 	395
f 138 	8 	136
f 137 	140 	130
f 137 	130 	127
f 128 	11 	121
f 145 	150 	49
f 60 	141 	230
f 146 	147 	140
f 146 	140 	137
f 150 	152 	48
f 46 	47 	158
f 59 	153 	141
f 59 	141 	60
f 154 	156 	147
f 154 	147 	146
f 158 	159 	46
f 143 	6 	138
f 58 	160 	153
f 58 	153 	59
f 162 	238 	151
f 164 	165 	156
f 164 	156 	154
f 44 	46 	159
f 56 	168 	160
f 56 	160 	58
f 170 	237 	162
f 142 	122 	149
f 167 	40 	163
f 64 	39 	167
f 163 	44 	159
f 55 	172 	168
f 55 	168 	56
f 122 	123 	149
f 155 	149 	123
f 123 	124 	155
f 181 	235 	175
f 151 	239 	144
f 176 	177 	182
f 176 	182 	183
f 54 	179 	172
f 54 	172 	55
f 186 	25 	184
f 184 	26 	174
f 161 	155 	125
f 177 	187 	189
f 177 	189 	182
f 102 	25 	186
f 164 	211 	34
f 53 	191 	179
f 53 	179 	54
f 175 	236 	170
f 187 	192 	193
f 187 	193 	189
f 169 	161 	126
f 129 	131 	171
f 231 	232 	203
f 188 	234 	181
f 656 	654 	783
f 52 	198 	191
f 52 	191 	53
f 206 	208 	146
f 178 	132 	185
f 185 	133 	190
f 203 	207 	231
f 51 	205 	198
f 51 	198 	52
f 190 	134 	196
f 208 	211 	154
f 207 	9 	231
f 199 	203 	232
f 395 	111 	241
f 50 	209 	205
f 50 	205 	51
f 154 	146 	208
f 212 	213 	114
f 214 	34 	211
f 119 	209 	50
f 217 	218 	213
f 217 	213 	212
f 215 	219 	220
f 221 	31 	216
f 216 	33 	214
f 232 	233 	199
f 9 	14 	230
f 230 	231 	9
f 173 	29 	221
f 174 	27 	173
f 222 	224 	218
f 222 	218 	217
f 124 	125 	155
f 196 	135 	202
f 204 	202 	114
f 277 	288 	249
f 227 	73 	223
f 228 	229 	224
f 228 	224 	222
f 235 	181 	234
f 233 	234 	188
f 236 	175 	235
f 237 	170 	236
f 238 	162 	237
f 188 	194 	233
f 194 	199 	233
f 239 	151 	238
f 241 	144 	239
f 242 	243 	229
f 242 	229 	228
f 219 	210 	220
f 122 	142 	120
f 316 	120 	142
f 255 	256 	243
f 255 	243 	242
f 249 	250 	277
f 269 	277 	250
f 250 	251 	269
f 264 	269 	251
f 262 	264 	251
f 251 	252 	262
f 226 	262 	252
f 225 	226 	253
f 254 	89 	253
f 94 	87 	254
f 252 	253 	226
f 260 	261 	256
f 260 	256 	255
f 288 	294 	248
f 219 	268 	220
f 265 	266 	261
f 265 	261 	260
f 160 	168 	344
f 247 	248 	294
f 248 	249 	288
f 84 	258 	276
f 294 	298 	247
f 638 	772 	283
f 280 	282 	266
f 280 	266 	265
f 246 	247 	298
f 298 	303 	246
f 293 	296 	282
f 293 	282 	280
f 273 	274 	356
f 354 	356 	274
f 274 	275 	354
f 343 	354 	275
f 278 	343 	275
f 281 	339 	278
f 284 	337 	281
f 285 	335 	284
f 287 	328 	285
f 289 	328 	287
f 290 	325 	289
f 307 	311 	244
f 245 	246 	303
f 257 	775 	283
f 303 	307 	245
f 301 	302 	296
f 301 	296 	293
f 244 	245 	307
f 776 	283 	257
f 168 	172 	259
f 292 	198 	299
f 311 	313 	291
f 308 	310 	302
f 308 	302 	301
f 299 	205 	306
f 315 	317 	310
f 315 	310 	308
f 306 	209 	312
f 290 	291 	313
f 291 	244 	311
f 312 	119 	316
f 356 	361 	272
f 272 	273 	356
f 646 	778 	283
f 328 	289 	325
f 326 	327 	317
f 326 	317 	315
f 219 	220 	323
f 335 	285 	328
f 333 	334 	327
f 333 	327 	326
f 645 	775 	777
f 313 	325 	290
f 336 	364 	330
f 183 	334 	333
f 183 	333 	176
f 343 	278 	339
f 339 	281 	337
f 271 	272 	363
f 361 	363 	272
f 350 	680 	349
f 349 	681 	348
f 351 	680 	350
f 352 	677 	351
f 355 	672 	352
f 357 	667 	355
f 359 	667 	357
f 367 	370 	270
f 342 	338 	153
f 153 	160 	342
f 344 	342 	160
f 364 	383 	330
f 322 	270 	24
f 24 	30 	322
f 30 	41 	321
f 338 	329 	153
f 141 	153 	329
f 329 	332 	141
f 368 	486 	332
f 320 	321 	41
f 57 	320 	41
f 370 	24 	270
f 68 	319 	57
f 684 	685 	377
f 377 	378 	684
f 378 	379 	683
f 379 	380 	683
f 682 	683 	380
f 347 	682 	380
f 375 	686 	374
f 374 	67 	412
f 78 	319 	68
f 279 	267 	191
f 259 	346 	168
f 346 	344 	168
f 559 	318 	82
f 321 	322 	30
f 337 	284 	335
f 388 	330 	383
f 415 	383 	414
f 650 	779 	780
f 557 	559 	508
f 363 	367 	271
f 4 	387 	388
f 4 	388 	1
f 305 	330 	309
f 387 	309 	330
f 330 	388 	387
f 388 	383 	415
f 107 	103 	195
f 103 	93 	461
f 458 	461 	93
f 93 	166 	458
f 195 	197 	107
f 166 	157 	457
f 453 	457 	157
f 198 	292 	191
f 205 	299 	198
f 209 	306 	205
f 119 	312 	209
f 279 	191 	292
f 179 	191 	267
f 172 	179 	263
f 263 	259 	172
f 120 	316 	119
f 267 	263 	179
f 188 	390 	393
f 177 	617 	187
f 176 	615 	177
f 588 	590 	65
f 400 	101 	399
f 399 	106 	397
f 401 	92 	400
f 404 	88 	403
f 397 	106 	396
f 591 	592 	74
f 656 	783 	657
f 408 	84 	404
f 409 	81 	408
f 412 	73 	411
f 403 	88 	401
f 411 	79 	409
f 308 	611 	315
f 301 	608 	308
f 315 	611 	326
f 293 	608 	301
f 280 	604 	293
f 265 	603 	280
f 260 	601 	265
f 255 	601 	260
f 242 	598 	255
f 326 	614 	333
f 228 	598 	242
f 222 	596 	228
f 212 	589 	217
f 223 	76 	594
f 632 	633 	227
f 157 	148 	453
f 110 	107 	197
f 636 	637 	258
f 421 	552 	420
f 422 	554 	421
f 423 	560 	422
f 425 	560 	423
f 276 	620 	295
f 428 	468 	553
f 295 	622 	304
f 556 	429 	418
f 304 	623 	314
f 410 	433 	432
f 625 	626 	324
f 314 	624 	324
f 67 	223 	73
f 441 	286 	437
f 432 	433 	429
f 73 	227 	240
f 73 	240 	79
f 331 	324 	626
f 461 	195 	103
f 455 	432 	433
f 612 	613 	443
f 443 	445 	612
f 616 	612 	445
f 445 	446 	616
f 619 	616 	446
f 447 	505 	446
f 448 	514 	447
f 450 	532 	448
f 451 	532 	450
f 452 	540 	451
f 420 	545 	452
f 438 	439 	655
f 79 	240 	258
f 127 	117 	201
f 626 	630 	331
f 84 	276 	295
f 630 	488 	340
f 340 	331 	630
f 201 	206 	127
f 197 	201 	110
f 137 	127 	206
f 146 	137 	206
f 164 	154 	211
f 468 	36 	553
f 469 	467 	474
f 362 	340 	488
f 466 	602 	465
f 602 	597 	465
f 473 	462 	586
f 595 	586 	462
f 597 	595 	464
f 464 	465 	597
f 63 	553 	36
f 35 	63 	36
f 428 	553 	427
f 433 	432 	470
f 476 	469 	474
f 369 	362 	489
f 488 	489 	362
f 69 	113 	63
f 474 	477 	469
f 489 	490 	369
f 106 	314 	324
f 490 	491 	373
f 373 	369 	490
f 341 	345 	511
f 384 	381 	492
f 491 	492 	381
f 466 	501 	475
f 113 	35 	43
f 90 	286 	43
f 331 	109 	324
f 106 	324 	109
f 353 	521 	345
f 511 	345 	521
f 479 	478 	501
f 478 	475 	501
f 340 	111 	331
f 109 	331 	111
f 417 	498 	368
f 494 	495 	390
f 390 	384 	494
f 492 	494 	384
f 353 	360 	521
f 525 	521 	360
f 501 	502 	479
f 286 	113 	43
f 286 	90 	431
f 286 	431 	434
f 286 	434 	436
f 436 	437 	286
f 457 	458 	166
f 117 	110 	201
f 526 	525 	360
f 526 	360 	366
f 340 	362 	111
f 441 	449 	286
f 268 	286 	139
f 215 	268 	139
f 526 	366 	371
f 502 	503 	481
f 481 	479 	502
f 148 	139 	449
f 139 	286 	449
f 220 	268 	215
f 449 	453 	148
f 503 	499 	482
f 482 	481 	503
f 417 	413 	498
f 393 	390 	495
f 141 	332 	486
f 398 	393 	496
f 406 	398 	496
f 496 	497 	406
f 496 	393 	495
f 413 	406 	497
f 498 	413 	497
f 486 	368 	498
f 300 	642 	553
f 144 	111 	362
f 297 	300 	553
f 286 	297 	553
f 113 	286 	63
f 369 	151 	362
f 144 	362 	151
f 210 	628 	323
f 192 	627 	180
f 500 	666 	485
f 485 	484 	500
f 499 	500 	483
f 483 	482 	499
f 484 	483 	500
f 220 	210 	323
f 180 	628 	200
f 300 	323 	628
f 187 	618 	192
f 162 	151 	373
f 369 	373 	151
f 537 	385 	382
f 200 	628 	210
f 511 	557 	508
f 162 	373 	381
f 521 	553 	511
f 525 	553 	521
f 510 	730 	509
f 512 	730 	510
f 513 	734 	512
f 515 	737 	513
f 509 	728 	507
f 516 	741 	515
f 517 	742 	516
f 519 	746 	517
f 520 	747 	519
f 522 	747 	520
f 523 	751 	522
f 524 	752 	523
f 538 	756 	524
f 526 	553 	525
f 270 	271 	367
f 175 	381 	384
f 419 	553 	527
f 320 	57 	319
f 390 	175 	384
f 607 	529 	530
f 471 	472 	579
f 426 	471 	570
f 532 	451 	540
f 514 	448 	532
f 505 	447 	514
f 426 	564 	425
f 527 	553 	526
f 427 	553 	419
f 82 	508 	559
f 78 	82 	318
f 537 	659 	536
f 536 	659 	535
f 539 	757 	538
f 547 	548 	544
f 188 	393 	398
f 534 	535 	660
f 537 	382 	410
f 199 	398 	406
f 553 	556 	511
f 551 	650 	548
f 63 	286 	553
f 540 	452 	545
f 544 	410 	577
f 203 	199 	406
f 203 	406 	413
f 180 	558 	549
f 555 	556 	553
f 557 	511 	556
f 319 	78 	318
f 556 	555 	547
f 545 	420 	552
f 566 	300 	563
f 418 	557 	556
f 571 	300 	566
f 413 	417 	203
f 552 	421 	554
f 576 	300 	571
f 62 	38 	573
f 38 	22 	572
f 573 	575 	62
f 65 	62 	587
f 587 	588 	65
f 71 	65 	590
f 590 	591 	71
f 569 	572 	22
f 578 	300 	576
f 547 	544 	577
f 580 	300 	578
f 554 	422 	560
f 581 	582 	584
f 550 	546 	583
f 599 	583 	546
f 560 	425 	564
f 570 	564 	426
f 432 	429 	577
f 150 	579 	585
f 634 	300 	580
f 642 	300 	634
f 217 	589 	222
f 333 	615 	176
f 556 	577 	429
f 74 	71 	591
f 592 	593 	74
f 76 	74 	593
f 593 	594 	76
f 594 	632 	223
f 227 	223 	632
f 240 	227 	633
f 432 	455 	577
f 548 	577 	455
f 579 	570 	471
f 585 	579 	472
f 582 	600 	584
f 159 	158 	595
f 603 	265 	601
f 472 	473 	585
f 586 	585 	473
f 546 	607 	599
f 455 	459 	548
f 2 	606 	607
f 2 	607 	3
f 595 	163 	159
f 462 	464 	595
f 475 	602 	466
f 546 	529 	607
f 607 	606 	599
f 643 	599 	606
f 81 	79 	258
f 614 	326 	611
f 611 	308 	608
f 615 	333 	614
f 439 	440 	658
f 617 	177 	615
f 84 	81 	258
f 618 	187 	617
f 470 	432 	577
f 88 	84 	295
f 627 	192 	618
f 623 	304 	622
f 624 	314 	623
f 622 	295 	621
f 381 	373 	491
f 625 	324 	624
f 440 	442 	613
f 619 	446 	505
f 628 	180 	627
f 295 	304 	88
f 92 	88 	304
f 511 	508 	341
f 582 	584 	629
f 563 	300 	628
f 532 	540 	115
f 304 	314 	92
f 101 	92 	314
f 166 	93 	97
f 97 	533 	166
f 638 	642 	634
f 633 	636 	240
f 258 	240 	636
f 276 	258 	637
f 637 	620 	276
f 621 	295 	620
f 639 	642 	638
f 545 	121 	540
f 106 	101 	314
f 640 	599 	643
f 646 	645 	553
f 11 	420 	452
f 631 	108 	635
f 121 	545 	128
f 527 	526 	371
f 648 	551 	645
f 10 	421 	420
f 10 	420 	11
f 434 	431 	391
f 646 	639 	645
f 8 	422 	421
f 8 	421 	10
f 552 	554 	128
f 551 	553 	645
f 650 	551 	648
f 635 	112 	641
f 651 	548 	650
f 642 	646 	553
f 7 	423 	422
f 7 	422 	8
f 652 	548 	651
f 641 	130 	644
f 6 	425 	423
f 6 	423 	7
f 654 	548 	652
f 656 	548 	654
f 644 	147 	647
f 6 	5 	426
f 6 	426 	425
f 657 	548 	656
f 385 	537 	536
f 454 	456 	653
f 647 	156 	649
f 660 	664 	534
f 536 	535 	389
f 536 	389 	385
f 5 	49 	426
f 392 	389 	534
f 535 	534 	389
f 442 	443 	613
f 613 	658 	440
f 658 	655 	439
f 655 	653 	456
f 456 	438 	655
f 164 	34 	454
f 164 	454 	165
f 548 	659 	544
f 659 	548 	657
f 662 	534 	664
f 680 	351 	677
f 682 	348 	681
f 376 	377 	685
f 534 	662 	787
f 34 	33 	456
f 34 	456 	454
f 493 	485 	666
f 659 	660 	535
f 544 	659 	537
f 662 	665 	359
f 33 	32 	438
f 33 	438 	456
f 667 	359 	665
f 162 	381 	170
f 432 	577 	410
f 672 	355 	667
f 677 	352 	672
f 544 	537 	410
f 31 	439 	438
f 31 	438 	32
f 381 	175 	170
f 681 	349 	680
f 664 	665 	662
f 29 	440 	439
f 29 	439 	31
f 418 	402 	557
f 559 	557 	402
f 683 	684 	378
f 181 	175 	390
f 675 	676 	713
f 713 	710 	675
f 676 	678 	716
f 716 	713 	676
f 674 	675 	710
f 710 	706 	674
f 719 	716 	678
f 678 	679 	719
f 679 	506 	722
f 723 	722 	506
f 506 	507 	723
f 706 	704 	673
f 669 	670 	687
f 661 	493 	668
f 663 	661 	668
f 666 	668 	493
f 375 	376 	685
f 28 	442 	440
f 28 	440 	29
f 188 	181 	390
f 27 	443 	442
f 27 	442 	28
f 686 	375 	685
f 348 	682 	347
f 67 	374 	686
f 88 	404 	84
f 101 	400 	92
f 109 	396 	106
f 111 	395 	109
f 194 	188 	398
f 26 	445 	443
f 26 	443 	27
f 199 	194 	398
f 668 	669 	663
f 25 	446 	445
f 25 	445 	26
f 695 	714 	694
f 694 	715 	693
f 696 	712 	695
f 697 	711 	696
f 698 	709 	697
f 693 	717 	692
f 692 	718 	691
f 700 	708 	699
f 701 	707 	700
f 45 	42 	50
f 702 	705 	701
f 691 	720 	690
f 208 	644 	647
f 23 	447 	446
f 23 	446 	25
f 556 	547 	577
f 687 	663 	669
f 21 	448 	447
f 21 	447 	23
f 207 	203 	417
f 577 	548 	547
f 211 	208 	647
f 711 	697 	709
f 20 	450 	448
f 20 	448 	21
f 551 	548 	459
f 707 	701 	705
f 688 	687 	670
f 689 	688 	670
f 714 	695 	712
f 708 	700 	707
f 417 	368 	207
f 19 	451 	450
f 19 	450 	20
f 709 	698 	708
f 459 	463 	551
f 553 	551 	463
f 717 	693 	715
f 18 	452 	451
f 18 	451 	19
f 553 	463 	470
f 553 	470 	555
f 630 	241 	488
f 720 	691 	718
f 670 	671 	689
f 704 	689 	671
f 452 	18 	11
f 239 	489 	488
f 239 	488 	241
f 555 	470 	577
f 555 	577 	547
f 671 	673 	704
f 238 	490 	489
f 238 	489 	239
f 426 	49 	471
f 721 	690 	720
f 596 	222 	589
f 589 	212 	721
f 598 	228 	596
f 601 	255 	598
f 604 	280 	603
f 608 	293 	604
f 212 	690 	721
f 237 	491 	490
f 237 	490 	238
f 36 	460 	467
f 722 	719 	679
f 703 	50 	42
f 42 	61 	703
f 705 	702 	61
f 712 	696 	711
f 715 	694 	714
f 718 	692 	717
f 699 	708 	698
f 236 	492 	491
f 236 	491 	237
f 723 	507 	728
f 726 	467 	469
f 235 	494 	492
f 235 	492 	236
f 59 	86 	58
f 733 	54 	731
f 729 	56 	100
f 476 	726 	469
f 234 	495 	494
f 234 	494 	235
f 735 	53 	733
f 233 	496 	495
f 233 	495 	234
f 738 	53 	735
f 728 	509 	730
f 469 	477 	726
f 740 	52 	738
f 731 	55 	729
f 232 	497 	496
f 232 	496 	233
f 730 	512 	734
f 464 	40 	465
f 702 	703 	61
f 734 	513 	737
f 737 	515 	741
f 231 	498 	497
f 231 	497 	232
f 45 	51 	740
f 40 	466 	465
f 230 	486 	498
f 230 	498 	231
f 86 	59 	80
f 80 	59 	77
f 741 	516 	742
f 141 	486 	230
f 100 	56 	91
f 91 	58 	86
f 60 	77 	59
f 244 	291 	506
f 673 	674 	706
f 469 	726 	504
f 742 	517 	746
f 291 	290 	507
f 291 	507 	506
f 290 	289 	509
f 290 	509 	507
f 289 	287 	510
f 289 	510 	509
f 499 	94 	500
f 287 	285 	512
f 287 	512 	510
f 746 	519 	747
f 143 	138 	564
f 285 	284 	513
f 285 	513 	512
f 474 	469 	504
f 254 	666 	94
f 284 	281 	515
f 284 	515 	513
f 747 	522 	749
f 749 	522 	751
f 281 	278 	516
f 281 	516 	515
f 564 	145 	143
f 278 	275 	517
f 278 	517 	516
f 275 	274 	519
f 275 	519 	517
f 751 	523 	752
f 639 	638 	283
f 274 	273 	520
f 274 	520 	519
f 752 	524 	754
f 273 	272 	522
f 273 	522 	520
f 152 	150 	585
f 272 	271 	523
f 272 	523 	522
f 645 	639 	283
f 754 	524 	756
f 614 	758 	760
f 271 	270 	524
f 271 	524 	523
f 756 	538 	757
f 158 	152 	585
f 283 	776 	642
f 283 	642 	639
f 330 	305 	529
f 759 	757 	539
f 305 	530 	529
f 305 	309 	530
f 607 	530 	309
f 539 	541 	759
f 776 	646 	642
f 538 	524 	322
f 270 	322 	524
f 322 	321 	539
f 322 	539 	538
f 761 	759 	541
f 541 	542 	761
f 762 	761 	542
f 321 	320 	541
f 321 	541 	539
f 283 	639 	646
f 320 	319 	542
f 320 	542 	541
f 319 	318 	543
f 319 	543 	542
f 543 	318 	559
f 559 	402 	543
f 648 	645 	777
f 764 	762 	542
f 336 	550 	583
f 529 	546 	330
f 437 	394 	405
f 336 	330 	546
f 336 	546 	550
f 407 	441 	405
f 140 	644 	130
f 140 	147 	644
f 130 	641 	118
f 118 	641 	112
f 108 	112 	635
f 156 	647 	147
f 454 	649 	165
f 165 	649 	156
f 777 	650 	648
f 612 	174 	173
f 449 	441 	416
f 736 	732 	610
f 651 	650 	780
f 612 	184 	174
f 424 	449 	416
f 652 	651 	780
f 727 	571 	725
f 571 	727 	732
f 571 	732 	576
f 472 	471 	48
f 49 	48 	471
f 736 	578 	732
f 576 	732 	578
f 48 	473 	472
f 739 	580 	736
f 578 	736 	580
f 753 	750 	282
f 282 	296 	753
f 755 	753 	296
f 296 	302 	755
f 302 	310 	755
f 758 	755 	310
f 310 	317 	758
f 317 	327 	758
f 760 	758 	327
f 327 	334 	760
f 763 	760 	334
f 266 	282 	750
f 183 	182 	763
f 473 	47 	462
f 659 	657 	785
f 739 	771 	580
f 464 	462 	44
f 46 	44 	462
f 201 	197 	641
f 528 	416 	518
f 631 	444 	105
f 653 	649 	454
f 105 	108 	631
f 44 	40 	464
f 785 	660 	659
f 371 	358 	419
f 641 	644 	201
f 206 	201 	644
f 660 	13 	664
f 561 	357 	562
f 208 	206 	644
f 357 	355 	565
f 357 	565 	562
f 567 	565 	352
f 355 	352 	565
f 352 	351 	568
f 352 	568 	567
f 365 	358 	463
f 372 	365 	463
f 569 	568 	350
f 351 	350 	568
f 98 	502 	501
f 601 	745 	748
f 350 	349 	572
f 350 	572 	569
f 573 	572 	348
f 349 	348 	572
f 98 	503 	502
f 216 	214 	655
f 12 	665 	664
f 748 	750 	601
f 348 	575 	573
f 655 	221 	216
f 587 	575 	380
f 665 	12 	667
f 726 	770 	467
f 36 	467 	770
f 499 	95 	94
f 386 	605 	391
f 347 	380 	575
f 391 	605 	394
f 726 	476 	770
f 43 	770 	476
f 588 	587 	379
f 380 	379 	587
f 379 	378 	590
f 379 	590 	588
f 500 	94 	666
f 726 	477 	770
f 591 	590 	377
f 378 	377 	590
f 394 	605 	405
f 377 	376 	592
f 377 	592 	591
f 254 	253 	668
f 254 	668 	666
f 167 	602 	64
f 22 	680 	677
f 593 	592 	375
f 376 	375 	592
f 405 	605 	407
f 253 	252 	669
f 253 	669 	668
f 375 	374 	594
f 375 	594 	593
f 680 	22 	38
f 680 	38 	681
f 407 	605 	416
f 416 	528 	424
f 64 	475 	478
f 374 	412 	594
f 252 	251 	670
f 252 	670 	669
f 430 	424 	531
f 531 	533 	430
f 614 	760 	763
f 662 	359 	561
f 787 	662 	561
f 681 	38 	682
f 479 	70 	478
f 251 	250 	671
f 251 	671 	670
f 359 	357 	561
f 69 	63 	480
f 250 	249 	673
f 250 	673 	671
f 70 	479 	481
f 504 	726 	770
f 435 	430 	533
f 435 	97 	444
f 97 	105 	444
f 249 	248 	674
f 249 	674 	673
f 617 	763 	766
f 476 	487 	43
f 90 	43 	487
f 248 	247 	675
f 248 	675 	674
f 372 	463 	460
f 617 	766 	767
f 247 	246 	676
f 247 	676 	675
f 83 	482 	483
f 348 	347 	575
f 685 	76 	686
f 246 	245 	678
f 246 	678 	676
f 474 	467 	477
f 463 	477 	467
f 467 	460 	463
f 83 	483 	484
f 336 	583 	364
f 245 	244 	679
f 245 	679 	678
f 686 	76 	67
f 480 	477 	504
f 463 	605 	477
f 386 	431 	487
f 244 	506 	679
f 50 	703 	119
f 504 	113 	480
f 703 	702 	120
f 703 	120 	119
f 485 	493 	89
f 628 	769 	563
f 702 	701 	122
f 702 	122 	120
f 225 	89 	661
f 504 	605 	476
f 476 	474 	504
f 725 	566 	724
f 563 	724 	566
f 632 	594 	412
f 701 	700 	123
f 701 	123 	122
f 225 	661 	663
f 225 	663 	226
f 493 	661 	89
f 383 	583 	599
f 364 	583 	383
f 566 	725 	571
f 383 	599 	414
f 139 	148 	518
f 528 	518 	148
f 504 	477 	605
f 700 	699 	124
f 700 	124 	123
f 387 	4 	3
f 387 	3 	607
f 2 	1 	388
f 2 	388 	606
f 309 	387 	607
f 528 	148 	531
f 157 	531 	148
f 699 	698 	125
f 699 	125 	124
f 606 	388 	643
f 388 	415 	643
f 404 	403 	621
f 404 	621 	620
f 698 	697 	126
f 698 	126 	125
f 166 	533 	531
f 166 	531 	157
f 403 	401 	622
f 403 	622 	621
f 605 	518 	416
f 487 	605 	386
f 476 	605 	487
f 531 	424 	528
f 48 	47 	473
f 401 	400 	623
f 401 	623 	622
f 697 	696 	129
f 697 	129 	126
f 400 	399 	624
f 400 	624 	623
f 399 	397 	625
f 399 	625 	624
f 46 	462 	47
f 696 	695 	131
f 696 	131 	129
f 397 	396 	626
f 397 	626 	625
f 533 	97 	435
f 396 	395 	630
f 396 	630 	626
f 193 	192 	180
f 549 	193 	180
f 695 	694 	132
f 695 	132 	131
f 241 	630 	395
f 414 	640 	643
f 414 	643 	415
f 632 	412 	411
f 632 	411 	633
f 215 	139 	518
f 694 	693 	133
f 694 	133 	132
f 411 	409 	636
f 411 	636 	633
f 409 	408 	637
f 409 	637 	636
f 620 	637 	404
f 408 	404 	637
f 693 	692 	134
f 693 	134 	133
f 558 	180 	200
f 40 	39 	466
f 743 	744 	589
f 596 	589 	744
f 582 	581 	600
f 581 	518 	600
f 605 	600 	518
f 599 	640 	414
f 692 	691 	135
f 692 	135 	134
f 39 	99 	466
f 610 	609 	463
f 691 	690 	114
f 691 	114 	135
f 598 	596 	744
f 598 	744 	745
f 200 	210 	574
f 200 	574 	558
f 501 	466 	99
f 114 	690 	212
f 745 	601 	598
f 605 	463 	609
f 584 	219 	581
f 215 	581 	219
f 99 	98 	501
f 603 	601 	750
f 518 	581 	215
f 503 	98 	96
f 96 	95 	499
f 96 	499 	503
f 219 	584 	574
f 210 	219 	574
f 750 	753 	603
f 604 	603 	753
f 732 	727 	610
f 629 	610 	574
f 582 	629 	574
f 739 	736 	610
f 727 	725 	610
f 582 	574 	584
f 608 	604 	753
f 608 	753 	755
f 542 	543 	764
f 268 	219 	600
f 584 	600 	219
f 755 	758 	608
f 611 	608 	758
f 268 	600 	605
f 268 	605 	286
f 614 	611 	758
f 765 	764 	543
f 66 	64 	478
f 341 	765 	402
f 543 	402 	765
f 297 	609 	610
f 297 	610 	300
f 615 	614 	763
f 345 	341 	418
f 402 	418 	341
f 70 	66 	478
f 610 	629 	300
f 617 	615 	763
f 609 	297 	605
f 286 	605 	297
f 72 	70 	481
f 618 	617 	767
f 429 	463 	353
f 418 	429 	353
f 358 	371 	463
f 353 	345 	418
f 323 	300 	629
f 481 	482 	72
f 75 	72 	482
f 627 	618 	767
f 627 	767 	768
f 323 	629 	219
f 584 	219 	629
f 562 	565 	15
f 572 	573 	38
f 22 	17 	568
f 567 	568 	17
f 15 	12 	561
f 75 	482 	83
f 768 	769 	627
f 628 	627 	769
f 484 	85 	83
f 721 	202 	204
f 783 	782 	455
f 724 	563 	769
f 527 	371 	419
f 85 	484 	485
f 85 	485 	87
f 433 	410 	455
f 561 	562 	15
f 782 	781 	455
f 354 	742 	746
f 204 	743 	721
f 634 	580 	771
f 87 	485 	89
f 365 	427 	358
f 419 	358 	427
f 787 	561 	12
f 634 	771 	638
f 772 	638 	771
f 365 	372 	427
f 428 	427 	372
f 354 	746 	747
f 772 	773 	774
f 470 	463 	429
f 366 	360 	463
f 371 	366 	463
f 360 	353 	463
f 514 	104 	505
f 460 	428 	372
f 774 	773 	775
f 433 	470 	429
f 115 	104 	514
f 776 	774 	773
f 751 	752 	367
f 115 	514 	532
f 367 	752 	754
f 386 	391 	431
f 116 	115 	540
f 193 	549 	768
f 774 	257 	778
f 769 	768 	549
f 549 	558 	769
f 116 	540 	121
f 434 	391 	394
f 552 	128 	545
f 724 	769 	558
f 558 	574 	724
f 725 	724 	610
f 574 	610 	724
f 773 	774 	778
f 437 	405 	441
f 114 	213 	204
f 138 	136 	560
f 650 	777 	779
f 407 	416 	441
f 564 	138 	560
f 743 	204 	213
f 145 	564 	570
f 579 	150 	570
f 145 	570 	150
f 652 	780 	781
f 764 	765 	82
f 213 	218 	743
f 782 	654 	781
f 652 	781 	654
f 82 	765 	341
f 218 	224 	743
f 458 	430 	435
f 158 	585 	586
f 346 	100 	344
f 744 	743 	224
f 654 	782 	783
f 158 	586 	595
f 435 	444 	458
f 461 	458 	444
f 745 	744 	229
f 224 	229 	744
f 783 	784 	657
f 229 	243 	745
f 595 	597 	163
f 243 	256 	745
f 657 	784 	785
f 163 	597 	167
f 602 	167 	597
f 748 	745 	256
f 786 	660 	785
f 256 	261 	748
f 475 	64 	602
f 750 	748 	266
f 261 	266 	748
f 786 	13 	660
f 613 	612 	173
f 392 	534 	787
f 37 	36 	770
f 766 	763 	182
f 334 	183 	763
f 767 	766 	189
f 189 	193 	767
f 768 	767 	193
f 182 	189 	766
f 184 	612 	616
f 708 	149 	155
f 770 	43 	37
f 294 	706 	710
f 186 	184 	616
f 186 	616 	619
f 155 	161 	708
f 709 	708 	161
f 37 	770 	63
f 477 	63 	770
f 773 	772 	776
f 772 	771 	776
f 294 	710 	713
f 505 	186 	619
f 664 	13 	12
f 169 	711 	161
f 709 	161 	711
f 667 	12 	15
f 195 	444 	631
f 37 	113 	770
f 712 	711 	169
f 712 	169 	171
f 16 	672 	15
f 667 	15 	672
f 771 	739 	610
f 635 	197 	631
f 195 	631 	197
f 477 	480 	63
f 171 	178 	712
f 714 	712 	178
f 17 	677 	16
f 672 	16 	677
f 773 	778 	775
f 641 	197 	635
f 504 	770 	113
f 35 	113 	37
f 715 	714 	178
f 715 	178 	185
f 677 	17 	22
f 610 	463 	776
f 776 	771 	610
f 778 	776 	463
f 185 	190 	715
f 717 	715 	190
f 775 	778 	463
f 682 	38 	62
f 718 	717 	190
f 718 	190 	196
f 777 	775 	459
f 463 	459 	775
f 211 	647 	649
f 65 	683 	62
f 682 	62 	683
f 779 	777 	459
f 196 	202 	718
f 720 	718 	202
f 325 	313 	728
f 649 	653 	211
f 214 	211 	653
f 780 	779 	455
f 459 	455 	779
f 684 	683 	71
f 65 	71 	683
f 90 	487 	431
f 325 	728 	730
f 720 	202 	721
f 655 	214 	653
f 781 	780 	455
f 69 	480 	113
f 74 	685 	71
f 684 	71 	685
f 221 	655 	658
f 589 	721 	743
f 685 	74 	76
f 658 	613 	221
f 173 	221 	613
f 67 	76 	223
f 12 	13 	787
f 389 	392 	13
f 382 	385 	13
f 786 	785 	455
f 785 	784 	455
f 784 	783 	455
f 102 	186 	505
f 102 	505 	104
f 565 	567 	16
f 17 	16 	567
f 575 	587 	62
f 16 	15 	565
f 568 	569 	22
f 774 	257 	772
f 257 	283 	772
f 257 	774 	775
f 645 	283 	775
f 733 	263 	267
f 136 	128 	554
f 774 	776 	257
f 554 	560 	136
f 436 	434 	394
f 778 	646 	776
f 437 	436 	394
f 257 	283 	778
f 453 	449 	424
f 424 	430 	453
f 457 	453 	430
f 458 	457 	430
f 444 	195 	461
f 468 	428 	460
f 36 	468 	460
f 719 	307 	716
f 307 	719 	722
f 723 	313 	722
f 346 	259 	100
f 723 	728 	313
f 335 	734 	337
f 339 	337 	741
f 737 	741 	337
f 339 	741 	742
f 733 	267 	279
f 45 	299 	306
f 356 	354 	747
f 312 	45 	306
f 356 	747 	749
f 363 	361 	751
f 751 	367 	363
f 754 	370 	367
f 754 	756 	24
f 86 	80 	342
f 757 	30 	756
f 24 	756 	30
f 344 	91 	342
f 30 	757 	759
f 30 	759 	41
f 259 	729 	100
f 761 	57 	759
f 41 	759 	57
f 9 	207 	368
f 57 	761 	762
f 57 	762 	68
f 332 	14 	368
f 764 	78 	762
f 68 	762 	78
f 78 	764 	82
f 707 	705 	142
f 707 	142 	149
f 341 	508 	82
f 149 	708 	707
f 264 	262 	688
f 269 	264 	689
f 688 	689 	264
f 704 	277 	689
f 269 	689 	277
f 288 	277 	706
f 704 	706 	277
f 288 	706 	294
f 142 	705 	316
f 263 	729 	259
f 299 	740 	292
f 299 	45 	740
f 42 	45 	312
f 312 	316 	42
f 61 	42 	316
f 705 	61 	316
f 663 	687 	226
f 262 	226 	687
f 329 	77 	332
f 14 	332 	77
f 687 	688 	262
f 338 	77 	329
f 86 	342 	91
f 344 	100 	91
f 298 	294 	713
f 303 	298 	713
f 303 	713 	716
f 9 	368 	14
f 716 	307 	303
f 311 	307 	722
f 731 	729 	263
f 722 	313 	311
f 733 	731 	263
f 735 	733 	279
f 279 	292 	735
f 738 	735 	292
f 325 	730 	328
f 734 	335 	730
f 328 	730 	335
f 740 	738 	292
f 737 	337 	734
f 339 	742 	343
f 343 	742 	354
f 749 	361 	356
f 749 	751 	361
f 370 	754 	24
# 1612 faces

 #end of obj_0

