# Object Export From Tinkercad Server 2015

mtllib obj.mtl

o obj_0
v -29.1 		6.657 		0
v -29.1 		6.657 		10
v -29.1 		12.349 		10
v -29.1 		12.349 		0
v 5.67 		-5.476 		0
v 5.936 		-5.562 		0
v 10.766 		-3.449 		10
v 10.163 		-4.29 		10
v 11.316 		-2.385 		10
v 6.22 		-5.631 		0
v 12.749 		4.106 		0
v 8.506 		9.95 		10
v 3.093 		-10.382 		0
v 3.093 		-10.382 		10
v 2.595 		-10.207 		10
v 16.429 		26.689 		0
v 2.595 		-10.207 		0
v 6.522 		-5.68 		0
v 12.308 		5.863 		0
v 3.405 		-3.361 		10
v 17.048 		26.007 		0
v 3.574 		-3.632 		10
v 17.633 		25.254 		0
v 11.799 		-1.099 		10
v 18.168 		24.434 		0
v 18.658 		23.55 		0
v 19.106 		22.603 		0
v 6.841 		-5.711 		0
v 19.51 		21.592 		0
v 3.636 		-10.556 		0
v 19.874 		20.519 		0
v 3.636 		-10.556 		10
v 20.197 		19.38 		0
v 20.475 		18.171 		0
v 7.151 		-5.72 		0
v 20.701 		16.891 		0
v 12.888 		6.285 		0
v 9.306 		-10.763 		10
v 10.424 		-10.52 		10
v 4.228 		-10.702 		0
v 11.488 		-10.177 		10
v 4.228 		-10.702 		10
v 12.497 		-9.734 		10
v 13.446 		-9.191 		10
v 14.32 		-8.564 		10
v 8.036 		-5.627 		0
v 3.749 		-3.888 		10
v 15.136 		-7.868 		10
v 4.852 		-10.814 		0
v 15.899 		-7.099 		10
v 4.852 		-10.814 		10
v 5.506 		-10.893 		0
v 5.506 		-10.893 		10
v 12.585 		6.076 		0
v 2.462 		-1.077 		10
v 3.932 		-4.13 		0
v 8.618 		29.885 		0
v 9.506 		29.854 		0
v 10.373 		29.759 		0
v 11.217 		29.599 		0
v 12.039 		29.375 		0
v 12.836 		29.087 		0
v 13.603 		28.736 		0
v 14.355 		28.332 		0
v 6.192 		-10.94 		0
v 15.082 		27.852 		0
v 15.774 		27.305 		0
v 2.577 		-1.444 		10
v 6.192 		-10.94 		10
v 12.852 		6.302 		0
v 0.927 		-0.189 		10
v 12.9222 		6.3672 		0
v 2.699 		-1.799 		10
v 12.9222 		6.3672 		4.096
v 6.917 		-10.956 		0
v 6.917 		-10.956 		10
v 0.512 		-0.364 		10
v 2.827 		-2.143 		10
v 8.135 		-10.908 		10
v 0.125 		-0.579 		10
v 8.135 		-10.908 		0
v 11.294 		22.712 		0
v 2.961 		-2.476 		10
v -0.273 		25.359 		0
v -0.273 		25.359 		10
v 11.075 		23.064 		0
v 3.095 		-2.784 		10
v 13.106 		6.538 		0
v -0.713 		24.686 		0
v -0.713 		24.686 		10
v 4.12 		-4.356 		10
v 10.852 		23.369 		0
v 3.244 		-3.075 		10
v 13.347 		6.78 		0
v -1.114 		23.974 		0
v -1.114 		23.974 		10
v 10.625 		23.628 		0
v -1.475 		23.223 		0
v -1.475 		23.223 		10
v 4.313 		-4.563 		10
v 2.113 		-10.002 		0
v 1.658 		-9.771 		0
v 13.578 		7.026 		0
v 1.229 		-9.512 		0
v -1.796 		22.435 		0
v -1.796 		22.435 		10
v 13.802 		7.28 		0
v 10.394 		23.845 		0
v 0.829 		-9.224 		0
v 0.46 		-8.91 		0
v 0.126 		-8.576 		0
v -2.08 		21.604 		0
v 14.017 		7.541 		0
v -2.08 		21.604 		10
v 10.158 		24.024 		0
v 4.516 		-4.754 		10
v 9.918 		24.168 		0
v 9.674 		24.278 		0
v 14.225 		7.809 		0
v -2.311 		20.752 		0
v -2.311 		20.752 		10
v 4.729 		-4.932 		10
v 13.358 		7.416 		0
v -2.498 		19.876 		0
v -2.498 		19.876 		10
v 9.422 		24.357 		0
v -2.643 		18.971 		0
v -2.643 		18.971 		10
v 4.955 		-5.095 		10
v 9.16 		24.404 		0
v -2.808 		17.08 		0
v -2.747 		18.039 		0
v 8.254 		4.246 		0
v 8.9 		24.42 		0
v 5.192 		-5.246 		10
v -2.747 		18.039 		10
v -20.834 		21.824 		0
v -15.814 		21.824 		0
v 8.401 		24.37 		0
v -2.808 		17.08 		10
v 5.428 		-5.375 		10
v 8.649 		4.302 		0
v 5.67 		-5.476 		10
v 9.034 		4.375 		0
v 5.936 		-5.562 		10
v 12.067 		20.838 		0
v -15.814 		21.824 		10
v 9.408 		4.465 		0
v -20.834 		21.824 		10
v 11.892 		21.385 		0
v -0.902 		8.347 		0
v -1.264 		8.96 		0
v 6.22 		-5.631 		10
v -1.591 		9.61 		0
v -1.883 		10.299 		0
v -2.144 		11.032 		0
v -2.357 		11.803 		0
v -2.528 		12.599 		0
v -2.66 		13.427 		0
v -2.754 		14.285 		0
v -2.81 		15.173 		0
v -2.829 		16.094 		0
v 11.71 		21.872 		0
v 6.522 		-5.68 		10
v 9.771 		4.57 		0
v 12.905 		12.439 		0
v -2.829 		16.094 		10
v 6.841 		-5.711 		10
v 11.508 		22.312 		0
v 13.032 		12.703 		0
v -15.814 		12.349 		0
v 10.124 		4.689 		0
v 7.151 		-5.72 		10
v -2.81 		15.173 		10
v -7.481 		12.349 		0
v 13.024 		13.548 		0
v 8.036 		-5.627 		10
v 10.468 		4.823 		0
v -2.754 		14.285 		10
v 12.991 		14.577 		0
v -0.075 		7.243 		0
v -0.505 		7.774 		0
v 12.861 		16.467 		0
v -2.66 		13.427 		10
v -7.481 		6.657 		0
v 12.937 		15.55 		0
v -15.814 		6.657 		0
v 10.803 		4.971 		0
v 12.765 		17.328 		0
v -2.528 		12.599 		10
v 3.932 		-4.13 		10
v -20.834 		12.349 		0
v -20.834 		6.657 		0
v 11.129 		5.135 		0
v 12.646 		18.141 		0
v -2.357 		11.803 		10
v 12.52 		18.893 		0
v 9.095 		9.905 		0
v 8.506 		9.95 		0
v -2.144 		11.032 		10
v 12.382 		19.592 		0
v 11.433 		5.305 		0
v 9.557 		9.928 		0
v -1.883 		10.299 		10
v 12.231 		20.24 		0
v -1.558 		-4.035 		0
v 11.727 		5.475 		0
v -1.539 		-3.569 		0
v -1.483 		-3.113 		0
v -1.386 		-2.674 		0
v -1.246 		-2.254 		0
v -1.591 		9.61 		10
v -1.064 		-1.859 		0
v -0.837 		-1.49 		0
v 9.997 		9.995 		0
v -0.554 		-1.142 		0
v -0.231 		-0.838 		0
v 12.022 		5.663 		0
v 10.407 		10.106 		0
v -1.264 		8.96 		10
v -0.902 		8.347 		10
v 10.79 		10.258 		0
v 0.126 		-8.576 		10
v 0.46 		-8.91 		10
v 0.829 		-9.224 		10
v 1.229 		-9.512 		10
v -0.452 		-7.856 		0
v 1.658 		-9.771 		10
v -0.696 		-7.467 		0
v -0.909 		-7.059 		0
v 2.113 		-10.002 		10
v -1.086 		-6.638 		0
v -1.231 		-6.216 		0
v -1.348 		-5.791 		0
v -1.44 		-5.361 		0
v 11.149 		10.453 		0
v 12.201 		0.412 		0
v -1.505 		-4.925 		0
v -1.544 		-4.485 		0
v -7.481 		12.349 		10
v 0.204 		25.987 		0
v 12.519 		2.148 		0
v 0.719 		26.585 		0
v 1.274 		27.139 		0
v -0.178 		-8.226 		0
v 1.866 		27.644 		0
v -15.814 		12.349 		10
v 2.494 		28.099 		0
v 11.49 		10.693 		0
v 3.155 		28.505 		0
v 3.846 		28.858 		0
v 4.569 		29.172 		0
v 5.327 		29.43 		0
v 6.111 		29.63 		0
v -15.814 		-2.818 		0
v 6.921 		29.772 		0
v 7.756 		29.857 		0
v -20.834 		-2.818 		0
v 11.816 		10.976 		0
v -0.505 		7.774 		10
v 12.122 		11.293 		0
v 0.385 		6.754 		10
v -0.075 		7.243 		10
v 7.971 		24.233 		0
v 19.51 		21.592 		10
v 12.405 		11.641 		0
v 0.873 		6.307 		10
v 19.106 		22.603 		10
v 7.581 		24.005 		0
v 18.658 		23.55 		10
v 18.168 		24.434 		10
v 17.633 		25.254 		10
v 17.048 		26.007 		10
v 16.429 		26.689 		10
v 12.666 		12.023 		0
v -7.481 		6.657 		10
v 1.389 		5.899 		10
v 20.701 		16.891 		10
v 7.214 		23.676 		0
v 20.475 		18.171 		10
v 20.197 		19.38 		10
v 19.874 		20.519 		10
v -15.814 		6.657 		10
v 1.932 		5.533 		10
v 6.865 		23.23 		0
v -20.834 		12.349 		10
v 6.541 		22.661 		0
v 2.503 		5.208 		10
v -20.834 		6.657 		10
v 8.618 		29.885 		10
v 6.259 		21.961 		0
v 15.774 		27.305 		10
v 15.082 		27.852 		10
v 3.103 		4.921 		10
v 14.355 		28.332 		10
v 6.019 		21.121 		0
v 13.603 		28.736 		10
v 5.6 		15.273 		10
v 12.836 		29.087 		10
v 5.6 		15.273 		0
v 12.039 		29.375 		10
v 11.217 		29.599 		10
v 10.373 		29.759 		10
v 9.506 		29.854 		10
v 5.826 		20.142 		0
v 5.684 		14.258 		10
v 3.714 		4.69 		10
v -0.231 		-0.838 		10
v 5.684 		14.258 		0
v 5.686 		19.027 		0
v 5.82 		13.358 		10
v 5.82 		13.358 		0
v -0.554 		-1.142 		10
v 5.601 		17.779 		0
v 11.294 		22.712 		10
v 4.339 		4.503 		10
v 6.006 		12.573 		10
v 6.006 		12.573 		0
v 5.572 		16.401 		0
v -0.837 		-1.49 		10
v 11.075 		23.064 		10
v 6.237 		11.904 		10
v 6.237 		11.904 		0
v 4.982 		4.358 		10
v 10.852 		23.369 		10
v -1.064 		-1.859 		10
v 6.504 		11.353 		10
v 6.504 		11.353 		0
v 5.641 		4.255 		10
v 10.625 		23.628 		10
v 6.815 		10.906 		10
v -1.246 		-2.254 		10
v 6.815 		10.906 		0
v 10.394 		23.845 		10
v 6.318 		4.194 		10
v -1.386 		-2.674 		10
v 7.164 		10.549 		10
v 7.164 		10.549 		0
v 7.554 		10.274 		0
v 7.007 		4.173 		10
v 10.158 		24.024 		10
v 20.877 		15.543 		0
v 21.001 		14.126 		0
v 7.554 		10.274 		10
v -1.483 		-3.113 		10
v 21.076 		12.642 		0
v 21.1 		11.089 		0
v 21.079 		9.607 		0
v 21.013 		8.157 		0
v 20.903 		6.736 		0
v 20.75 		5.347 		0
v 20.552 		3.988 		0
v 20.31 		2.664 		0
v 7.998 		10.074 		0
v 20.032 		1.364 		0
v 19.701 		0.111 		0
v 7.998 		10.074 		10
v 9.918 		24.168 		10
v 7.435 		4.181 		10
v -1.539 		-3.569 		10
v -1.558 		-4.035 		10
v 9.674 		24.278 		10
v 9.422 		24.357 		10
v 9.16 		24.404 		10
v -1.544 		-4.485 		10
v -1.505 		-4.925 		10
v -1.44 		-5.361 		10
v -1.348 		-5.791 		10
v -1.231 		-6.216 		10
v -1.086 		-6.638 		10
v -0.909 		-7.059 		10
v -0.696 		-7.467 		10
v -0.452 		-7.856 		10
v 7.849 		4.205 		10
v 8.9 		24.42 		10
v 12.749 		4.106 		10
v -0.178 		-8.226 		10
v 8.401 		24.37 		10
v -15.814 		-2.818 		10
v -20.834 		-2.818 		10
v 12.308 		5.863 		10
v 2.104 		0.175 		10
v 12.067 		20.838 		10
v 11.892 		21.385 		10
v 12.888 		6.285 		10
v 11.71 		21.872 		10
v 11.508 		22.312 		10
v 12.585 		6.076 		10
v 12.861 		16.467 		10
v 12.765 		17.328 		10
v 12.852 		6.302 		10
v 12.646 		18.141 		10
v 12.52 		18.893 		10
v 12.9222 		6.3672 		8.192
v 12.9222 		6.3672 		10
v 12.382 		19.592 		10
v 12.231 		20.24 		10
v 13.106 		6.538 		10
v 13.347 		6.78 		10
v 13.578 		7.026 		10
v 7.756 		29.857 		10
v 6.921 		29.772 		10
v 6.111 		29.63 		10
v 5.327 		29.43 		10
v 4.569 		29.172 		10
v 3.846 		28.858 		10
v 3.155 		28.505 		10
v 2.494 		28.099 		10
v 1.866 		27.644 		10
v 13.802 		7.28 		10
v 1.274 		27.139 		10
v 0.719 		26.585 		10
v 0.204 		25.987 		10
v 14.017 		7.541 		10
v 14.225 		7.809 		10
v 7.971 		24.233 		10
v 7.581 		24.005 		10
v 13.358 		7.416 		10
v 7.214 		23.676 		10
v 6.865 		23.23 		10
v 8.254 		4.246 		10
v 6.541 		22.661 		10
v 6.259 		21.961 		10
v 8.649 		4.302 		10
v 6.019 		21.121 		10
v 5.826 		20.142 		10
v 9.034 		4.375 		10
v 5.686 		19.027 		10
v 9.408 		4.465 		10
v 5.601 		17.779 		10
v 5.572 		16.401 		10
v 9.771 		4.57 		10
v 10.124 		4.689 		10
v 0.385 		6.754 		0
v 10.468 		4.823 		10
v 0.873 		6.307 		0
v 10.803 		4.971 		10
v 1.389 		5.899 		0
v 11.129 		5.135 		10
v 21.1 		11.089 		10
v 21.076 		12.642 		10
v 21.001 		14.126 		10
v 20.877 		15.543 		10
v 1.932 		5.533 		0
v 11.433 		5.305 		10
v 19.701 		0.111 		10
v 20.032 		1.364 		10
v 20.31 		2.664 		10
v 20.552 		3.988 		10
v 20.75 		5.347 		10
v 20.903 		6.736 		10
v 21.013 		8.157 		10
v 21.079 		9.607 		10
v 2.503 		5.208 		0
v 12.905 		12.439 		10
v 11.727 		5.475 		10
v 13.032 		12.703 		10
v 3.103 		4.921 		0
v 13.024 		13.548 		10
v 12.022 		5.663 		10
v 12.991 		14.577 		10
v 12.937 		15.55 		10
v 3.714 		4.69 		0
v 12.201 		0.412 		10
v 4.339 		4.503 		0
v 12.519 		2.148 		10
v 9.095 		9.905 		10
v 4.982 		4.358 		0
v 9.557 		9.928 		10
v 5.641 		4.255 		0
v 9.997 		9.995 		10
v 10.407 		10.106 		10
v 6.318 		4.194 		0
v 10.79 		10.258 		10
v 7.007 		4.173 		0
v 11.149 		10.453 		10
v 2.462 		-1.077 		0
v 7.435 		4.181 		0
v 11.49 		10.693 		10
v 2.577 		-1.444 		0
v 7.849 		4.205 		0
v 2.699 		-1.799 		0
v 11.816 		10.976 		10
v 12.122 		11.293 		10
v 2.827 		-2.143 		0
v 12.405 		11.641 		10
v 2.104 		0.175 		0
v 12.666 		12.023 		10
v 2.961 		-2.476 		0
v 16.606 		-6.258 		0
v 16.606 		-6.258 		10
v 3.095 		-2.784 		0
v 17.259 		-5.346 		0
v 17.259 		-5.346 		10
v 3.244 		-3.075 		0
v 17.855 		-4.366 		0
v 17.855 		-4.366 		10
v 18.396 		-3.328 		0
v 18.396 		-3.328 		10
v 18.883 		-2.236 		0
v 18.883 		-2.236 		10
v 19.318 		-1.089 		0
v 19.318 		-1.089 		10
v 3.405 		-3.361 		0
v 3.574 		-3.632 		0
v 9.306 		-10.763 		0
v 10.424 		-10.52 		0
v 8.809 		-5.362 		0
v 3.749 		-3.888 		0
v 11.488 		-10.177 		0
v 9.512 		-4.921 		0
v 12.497 		-9.734 		0
v 10.163 		-4.29 		0
v 10.766 		-3.449 		0
v 13.446 		-9.191 		0
v 11.316 		-2.385 		0
v 14.32 		-8.564 		0
v 11.799 		-1.099 		0
v 15.136 		-7.868 		0
v 0.927 		-0.189 		0
v 15.899 		-7.099 		0
v 0.512 		-0.364 		0
v 0.125 		-0.579 		0
v 8.809 		-5.362 		10
v 9.512 		-4.921 		10
v 4.12 		-4.356 		0
v 4.313 		-4.563 		0
v 4.516 		-4.754 		0
v 4.729 		-4.932 		0
v 4.955 		-5.095 		0
v 5.192 		-5.246 		0
v 5.428 		-5.375 		0
# 532 vertices

g group_0_15277357

usemtl color_15277357
s 0

f 1 	2 	3
f 1 	3 	4
f 525 	524 	41
f 13 	14 	15
f 13 	15 	17
f 41 	43 	525
f 6 	40 	5
f 18 	52 	10
f 30 	32 	14
f 30 	14 	13
f 25 	163 	23
f 21 	23 	169
f 26 	150 	25
f 27 	146 	26
f 29 	205 	27
f 31 	201 	29
f 33 	195 	31
f 34 	189 	33
f 36 	183 	34
f 169 	82 	21
f 40 	42 	32
f 40 	32 	30
f 35 	75 	28
f 49 	51 	42
f 49 	42 	40
f 43 	44 	525
f 8 	525 	44
f 44 	45 	8
f 45 	48 	8
f 7 	8 	48
f 48 	50 	7
f 50 	491 	7
f 9 	7 	491
f 491 	494 	9
f 52 	53 	51
f 52 	51 	49
f 65 	69 	53
f 65 	53 	52
f 63 	115 	62
f 62 	117 	61
f 61 	118 	60
f 60 	126 	59
f 58 	59 	130
f 64 	108 	63
f 66 	97 	64
f 67 	92 	66
f 130 	134 	58
f 12 	198 	199
f 37 	74 	72
f 75 	76 	69
f 75 	69 	65
f 526 	227 	56
f 10 	49 	6
f 28 	65 	18
f 46 	81 	35
f 235 	505 	234
f 71 	77 	55
f 70 	72 	74
f 79 	76 	75
f 79 	75 	81
f 68 	55 	77
f 67 	16 	86
f 77 	80 	68
f 74 	88 	72
f 84 	89 	90
f 84 	90 	85
f 92 	67 	86
f 80 	308 	68
f 89 	95 	96
f 89 	96 	90
f 97 	66 	92
f 95 	98 	99
f 95 	99 	96
f 308 	313 	73
f 73 	68 	308
f 98 	105 	106
f 98 	106 	99
f 78 	73 	320
f 313 	320 	73
f 82 	86 	16
f 105 	112 	114
f 105 	114 	106
f 22 	20 	367
f 93 	87 	361
f 361 	365 	93
f 365 	366 	93
f 20 	93 	366
f 117 	62 	115
f 65 	28 	75
f 52 	18 	65
f 49 	10 	52
f 40 	6 	49
f 30 	5 	40
f 13 	532 	30
f 17 	531 	13
f 101 	531 	17
f 102 	530 	101
f 104 	529 	102
f 109 	529 	104
f 110 	528 	109
f 111 	527 	110
f 245 	527 	111
f 75 	35 	81
f 112 	120 	121
f 112 	121 	114
f 118 	61 	117
f 108 	64 	97
f 120 	124 	125
f 120 	125 	121
f 126 	60 	118
f 530 	529 	129
f 123 	74 	72
f 130 	59 	126
f 115 	63 	108
f 124 	127 	128
f 124 	128 	125
f 223 	224 	100
f 116 	100 	224
f 57 	58 	134
f 127 	132 	136
f 127 	136 	128
f 105 	305 	112
f 98 	305 	105
f 95 	296 	98
f 89 	296 	95
f 305 	310 	112
f 120 	112 	310
f 124 	120 	310
f 310 	314 	124
f 486 	275 	266
f 139 	257 	134
f 224 	225 	116
f 132 	131 	140
f 132 	140 	136
f 264 	256 	139
f 122 	116 	225
f 225 	226 	122
f 131 	167 	140
f 6 	143 	145
f 138 	137 	149
f 138 	149 	147
f 150 	26 	146
f 163 	25 	150
f 309 	312 	158
f 158 	159 	309
f 159 	160 	309
f 300 	309 	160
f 161 	162 	300
f 319 	300 	162
f 162 	131 	319
f 131 	132 	319
f 132 	127 	314
f 127 	124 	314
f 156 	157 	312
f 131 	162 	167
f 141 	135 	14
f 145 	51 	153
f 162 	161 	174
f 162 	174 	167
f 175 	187 	171
f 176 	170 	459
f 169 	23 	163
f 16 	21 	82
f 161 	160 	179
f 161 	179 	174
f 459 	180 	176
f 151 	323 	182
f 160 	159 	184
f 160 	184 	179
f 185 	187 	175
f 173 	79 	177
f 159 	158 	190
f 159 	190 	184
f 193 	187 	255
f 4 	192 	193
f 4 	193 	1
f 173 	168 	76
f 164 	69 	168
f 153 	53 	164
f 226 	228 	122
f 91 	377 	100
f 191 	373 	91
f 47 	371 	191
f 158 	157 	196
f 158 	196 	190
f 138 	171 	137
f 192 	137 	171
f 193 	192 	171
f 193 	171 	187
f 189 	34 	183
f 157 	156 	200
f 157 	200 	196
f 197 	31 	195
f 156 	155 	204
f 156 	204 	200
f 205 	29 	201
f 155 	154 	212
f 155 	212 	204
f 213 	485 	211
f 211 	485 	210
f 210 	489 	209
f 209 	489 	208
f 214 	485 	213
f 216 	482 	214
f 217 	482 	216
f 154 	152 	220
f 154 	220 	212
f 146 	27 	205
f 152 	151 	221
f 152 	221 	220
f 222 	219 	474
f 151 	260 	221
f 232 	509 	230
f 230 	56 	229
f 229 	56 	227
f 233 	509 	232
f 239 	495 	238
f 206 	495 	239
f 39 	41 	524
f 524 	177 	39
f 79 	173 	76
f 129 	122 	228
f 228 	231 	129
f 135 	129 	231
f 231 	15 	135
f 15 	14 	135
f 14 	32 	141
f 143 	141 	32
f 143 	42 	145
f 42 	143 	32
f 51 	145 	42
f 53 	153 	51
f 69 	164 	53
f 76 	168 	69
f 474 	476 	222
f 236 	222 	476
f 175 	240 	276
f 171 	138 	247
f 147 	247 	138
f 249 	236 	476
f 249 	476 	479
f 175 	171 	247
f 175 	247 	240
f 255 	258 	193
f 479 	259 	249
f 151 	182 	260
f 248 	285 	246
f 244 	246 	285
f 250 	279 	248
f 251 	279 	250
f 285 	287 	244
f 252 	269 	251
f 253 	269 	252
f 254 	264 	253
f 256 	264 	254
f 257 	139 	256
f 243 	244 	287
f 57 	134 	257
f 241 	243 	287
f 287 	291 	241
f 296 	89 	291
f 314 	319 	132
f 84 	291 	89
f 182 	181 	263
f 182 	263 	260
f 261 	259 	484
f 96 	425 	90
f 99 	425 	96
f 106 	426 	99
f 114 	426 	106
f 121 	428 	114
f 125 	428 	121
f 128 	430 	125
f 184 	190 	306
f 136 	430 	128
f 266 	261 	484
f 269 	253 	264
f 262 	263 	434
f 181 	434 	263
f 276 	185 	175
f 273 	387 	272
f 272 	386 	271
f 270 	271 	384
f 282 	265 	396
f 397 	396 	265
f 279 	251 	269
f 276 	283 	187
f 276 	187 	185
f 187 	283 	255
f 192 	4 	3
f 192 	3 	286
f 2 	1 	193
f 2 	193 	289
f 84 	241 	291
f 286 	149 	192
f 137 	192 	149
f 311 	306 	190
f 190 	196 	311
f 196 	200 	311
f 200 	204 	311
f 317 	311 	204
f 204 	212 	317
f 212 	220 	317
f 322 	317 	220
f 220 	221 	322
f 263 	262 	327
f 221 	260 	322
f 260 	263 	322
f 285 	248 	279
f 431 	298 	300
f 401 	375 	290
f 363 	303 	364
f 297 	299 	341
f 295 	297 	334
f 358 	341 	299
f 334 	330 	295
f 362 	358 	301
f 301 	302 	362
f 363 	362 	302
f 303 	363 	302
f 304 	364 	303
f 290 	375 	304
f 147 	149 	247
f 305 	98 	296
f 300 	298 	306
f 300 	306 	309
f 217 	308 	80
f 276 	240 	247
f 309 	306 	311
f 309 	311 	312
f 330 	325 	293
f 384 	383 	270
f 384 	271 	386
f 268 	270 	383
f 265 	268 	397
f 217 	313 	308
f 160 	161 	300
f 495 	93 	20
f 312 	311 	317
f 312 	317 	318
f 331 	327 	277
f 386 	163 	150
f 318 	317 	322
f 318 	322 	323
f 283 	276 	247
f 286 	289 	247
f 323 	322 	327
f 323 	327 	328
f 2 	289 	286
f 2 	286 	3
f 157 	158 	312
f 151 	152 	323
f 318 	323 	152
f 328 	327 	331
f 328 	331 	333
f 273 	274 	315
f 321 	315 	274
f 333 	331 	337
f 333 	337 	338
f 149 	286 	247
f 283 	247 	289
f 339 	338 	337
f 339 	337 	344
f 274 	292 	321
f 325 	321 	292
f 354 	339 	344
f 354 	344 	357
f 292 	293 	325
f 176 	180 	343
f 346 	176 	343
f 347 	170 	346
f 348 	170 	347
f 349 	275 	348
f 350 	119 	349
f 353 	103 	352
f 351 	352 	119
f 356 	242 	355
f 355 	88 	353
f 176 	346 	170
f 320 	326 	78
f 332 	336 	78
f 326 	332 	78
f 83 	78 	336
f 336 	345 	83
f 345 	360 	83
f 87 	83 	360
f 366 	367 	20
f 361 	87 	360
f 293 	295 	330
f 341 	334 	297
f 357 	12 	199
f 354 	357 	199
f 368 	369 	22
f 367 	368 	22
f 47 	22 	369
f 370 	47 	369
f 371 	47 	370
f 372 	191 	371
f 373 	191 	372
f 373 	377 	91
f 299 	301 	358
f 223 	100 	377
f 364 	304 	375
f 378 	375 	401
f 36 	342 	186
f 283 	289 	379
f 380 	379 	289
f 180 	186 	342
f 36 	186 	183
f 195 	33 	189
f 201 	31 	197
f 36 	34 	280
f 36 	280 	278
f 487 	71 	382
f 520 	522 	71
f 34 	33 	281
f 34 	281 	280
f 383 	397 	268
f 33 	31 	282
f 33 	282 	281
f 235 	234 	367
f 31 	29 	265
f 31 	265 	282
f 386 	272 	387
f 315 	387 	273
f 468 	324 	316
f 27 	268 	265
f 27 	265 	29
f 222 	236 	123
f 219 	222 	123
f 395 	394 	385
f 26 	270 	268
f 26 	268 	27
f 78 	485 	482
f 236 	249 	123
f 470 	329 	324
f 470 	324 	468
f 25 	271 	270
f 25 	270 	26
f 119 	123 	249
f 485 	78 	489
f 23 	272 	271
f 23 	271 	25
f 130 	126 	364
f 329 	470 	335
f 473 	335 	470
f 249 	259 	119
f 389 	280 	390
f 230 	229 	371
f 21 	273 	272
f 21 	272 	23
f 259 	261 	119
f 392 	390 	281
f 280 	281 	390
f 475 	340 	335
f 475 	335 	473
f 134 	130 	364
f 394 	395 	391
f 281 	282 	392
f 261 	266 	119
f 16 	274 	273
f 16 	273 	21
f 349 	119 	266
f 340 	475 	359
f 478 	359 	475
f 398 	394 	395
f 166 	348 	275
f 396 	393 	282
f 393 	392 	282
f 280 	389 	278
f 374 	359 	478
f 292 	274 	67
f 16 	67 	274
f 80 	523 	217
f 20 	22 	505
f 67 	66 	293
f 67 	293 	292
f 275 	349 	266
f 170 	348 	166
f 342 	343 	180
f 313 	217 	216
f 66 	64 	295
f 66 	295 	293
f 509 	505 	47
f 22 	47 	505
f 64 	63 	297
f 64 	297 	295
f 320 	313 	214
f 216 	214 	313
f 63 	62 	299
f 63 	299 	297
f 434 	436 	262
f 267 	262 	436
f 386 	169 	163
f 214 	213 	326
f 214 	326 	320
f 62 	61 	301
f 62 	301 	299
f 123 	72 	219
f 72 	70 	219
f 70 	54 	219
f 407 	408 	419
f 405 	406 	417
f 404 	405 	417
f 417 	416 	404
f 408 	409 	420
f 409 	411 	420
f 422 	420 	411
f 411 	412 	422
f 423 	422 	413
f 413 	85 	423
f 90 	423 	85
f 403 	404 	416
f 420 	419 	408
f 417 	406 	419
f 402 	403 	416
f 61 	60 	302
f 61 	302 	301
f 401 	402 	378
f 267 	436 	277
f 438 	277 	436
f 332 	326 	211
f 213 	211 	326
f 60 	59 	303
f 60 	303 	302
f 154 	155 	318
f 186 	389 	183
f 444 	284 	277
f 444 	277 	438
f 59 	58 	304
f 59 	304 	303
f 152 	154 	318
f 312 	318 	155
f 526 	91 	100
f 211 	210 	336
f 211 	336 	332
f 189 	183 	389
f 189 	389 	390
f 416 	378 	402
f 418 	395 	394
f 58 	57 	290
f 58 	290 	304
f 284 	444 	288
f 454 	288 	444
f 390 	195 	189
f 210 	345 	336
f 528 	100 	116
f 57 	401 	290
f 406 	407 	419
f 421 	374 	481
f 458 	294 	288
f 458 	288 	454
f 328 	181 	323
f 345 	208 	360
f 333 	438 	328
f 529 	528 	116
f 529 	116 	122
f 201 	197 	396
f 361 	360 	206
f 208 	206 	360
f 465 	463 	338
f 155 	156 	312
f 294 	458 	307
f 463 	307 	458
f 396 	397 	201
f 205 	201 	397
f 122 	129 	529
f 206 	239 	361
f 412 	413 	422
f 142 	133 	199
f 473 	470 	339
f 397 	146 	205
f 423 	90 	425
f 425 	99 	426
f 530 	129 	135
f 239 	365 	361
f 477 	487 	382
f 57 	257 	401
f 144 	142 	199
f 339 	354 	473
f 426 	114 	428
f 257 	256 	402
f 257 	402 	401
f 37 	355 	11
f 256 	254 	403
f 256 	403 	402
f 428 	125 	430
f 136 	431 	430
f 235 	367 	366
f 254 	253 	404
f 254 	404 	403
f 72 	355 	37
f 253 	252 	405
f 253 	405 	404
f 88 	355 	72
f 94 	353 	88
f 368 	367 	234
f 252 	251 	406
f 252 	406 	405
f 103 	353 	94
f 107 	352 	103
f 113 	352 	107
f 234 	233 	369
f 234 	369 	368
f 251 	250 	407
f 251 	407 	406
f 119 	352 	113
f 6 	145 	153
f 250 	248 	408
f 250 	408 	407
f 233 	370 	369
f 350 	351 	119
f 443 	278 	462
f 462 	461 	443
f 415 	414 	449
f 450 	415 	449
f 451 	415 	450
f 452 	415 	451
f 18 	153 	164
f 248 	246 	409
f 248 	409 	408
f 230 	371 	370
f 455 	453 	457
f 28 	18 	164
f 28 	164 	168
f 246 	244 	411
f 246 	411 	409
f 372 	371 	229
f 244 	243 	412
f 244 	412 	411
f 459 	457 	441
f 173 	28 	168
f 229 	227 	373
f 229 	373 	372
f 243 	241 	413
f 243 	413 	412
f 54 	19 	219
f 241 	84 	85
f 241 	85 	413
f 227 	245 	373
f 465 	316 	307
f 465 	307 	463
f 441 	442 	459
f 461 	459 	442
f 442 	443 	461
f 462 	278 	389
f 337 	331 	288
f 468 	316 	465
f 215 	219 	19
f 19 	218 	215
f 218 	207 	215
f 207 	202 	215
f 11 	466 	376
f 378 	416 	139
f 509 	47 	191
f 264 	416 	417
f 264 	417 	269
f 150 	146 	383
f 150 	383 	384
f 269 	417 	419
f 269 	419 	279
f 460 	218 	381
f 19 	381 	218
f 471 	381 	472
f 386 	150 	384
f 279 	419 	420
f 279 	420 	285
f 203 	215 	202
f 202 	194 	203
f 194 	188 	203
f 188 	178 	203
f 198 	203 	178
f 178 	172 	198
f 172 	165 	198
f 165 	148 	198
f 199 	198 	148
f 133 	481 	199
f 354 	199 	481
f 144 	199 	148
f 285 	420 	422
f 285 	422 	287
f 472 	418 	474
f 210 	209 	345
f 376 	385 	11
f 37 	11 	385
f 478 	481 	374
f 474 	418 	476
f 287 	422 	423
f 287 	423 	291
f 356 	502 	242
f 209 	208 	345
f 291 	423 	425
f 291 	425 	296
f 19 	54 	381
f 388 	381 	54
f 11 	355 	242
f 502 	500 	237
f 479 	415 	483
f 476 	418 	479
f 296 	425 	426
f 296 	426 	305
f 484 	415 	486
f 483 	415 	484
f 305 	426 	428
f 305 	428 	310
f 195 	390 	392
f 520 	71 	487
f 310 	428 	430
f 310 	430 	314
f 388 	54 	391
f 70 	391 	54
f 393 	197 	392
f 195 	392 	197
f 491 	50 	490
f 521 	490 	50
f 440 	441 	457
f 488 	453 	455
f 440 	457 	453
f 486 	452 	488
f 314 	430 	431
f 314 	431 	319
f 493 	494 	491
f 493 	491 	490
f 396 	197 	393
f 37 	385 	74
f 74 	385 	394
f 496 	497 	494
f 496 	494 	493
f 319 	431 	300
f 366 	365 	238
f 239 	238 	365
f 498 	499 	497
f 498 	497 	496
f 74 	394 	391
f 74 	391 	70
f 146 	397 	383
f 500 	501 	499
f 500 	499 	498
f 478 	354 	481
f 475 	354 	478
f 473 	354 	475
f 470 	468 	339
f 468 	465 	339
f 338 	339 	465
f 463 	458 	338
f 333 	338 	458
f 458 	454 	333
f 454 	444 	333
f 444 	438 	333
f 438 	436 	328
f 436 	434 	328
f 434 	181 	328
f 182 	323 	181
f 238 	235 	366
f 356 	446 	503
f 502 	503 	501
f 502 	501 	500
f 394 	398 	74
f 88 	74 	398
f 469 	445 	471
f 12 	429 	467
f 453 	488 	452
f 448 	449 	400
f 356 	355 	447
f 356 	447 	446
f 504 	495 	20
f 503 	502 	356
f 520 	487 	477
f 355 	353 	448
f 355 	448 	447
f 398 	399 	88
f 94 	88 	399
f 136 	140 	431
f 38 	79 	506
f 353 	352 	449
f 353 	449 	448
f 505 	504 	20
f 233 	232 	370
f 103 	94 	399
f 103 	399 	400
f 490 	516 	493
f 493 	516 	496
f 498 	496 	518
f 518 	237 	498
f 521 	514 	490
f 352 	351 	450
f 352 	450 	449
f 298 	431 	167
f 140 	167 	431
f 232 	230 	370
f 507 	39 	38
f 507 	38 	506
f 400 	410 	103
f 107 	103 	410
f 351 	350 	451
f 351 	451 	450
f 174 	179 	298
f 167 	174 	298
f 510 	41 	39
f 510 	39 	507
f 350 	349 	452
f 350 	452 	451
f 179 	184 	306
f 306 	298 	179
f 113 	107 	410
f 113 	410 	414
f 92 	325 	97
f 513 	514 	519
f 512 	43 	41
f 512 	41 	510
f 521 	519 	514
f 511 	510 	508
f 508 	507 	46
f 515 	44 	43
f 515 	43 	512
f 516 	490 	514
f 81 	46 	506
f 349 	348 	453
f 349 	453 	452
f 517 	45 	44
f 517 	44 	515
f 518 	496 	516
f 414 	415 	113
f 119 	113 	415
f 97 	330 	108
f 334 	108 	330
f 327 	322 	263
f 519 	48 	45
f 519 	45 	517
f 348 	347 	440
f 348 	440 	453
f 262 	267 	327
f 521 	50 	48
f 521 	48 	519
f 418 	123 	415
f 119 	415 	123
f 108 	334 	341
f 108 	341 	115
f 377 	373 	245
f 346 	441 	440
f 346 	440 	347
f 77 	71 	522
f 245 	223 	377
f 343 	442 	441
f 343 	441 	346
f 284 	288 	331
f 277 	284 	331
f 510 	511 	512
f 515 	512 	511
f 511 	513 	515
f 517 	515 	513
f 507 	508 	510
f 506 	46 	507
f 519 	517 	513
f 237 	242 	502
f 500 	498 	237
f 394 	74 	418
f 123 	418 	74
f 283 	379 	255
f 358 	117 	341
f 115 	341 	117
f 46 	177 	508
f 80 	77 	523
f 522 	523 	77
f 380 	289 	258
f 193 	258 	289
f 342 	443 	442
f 342 	442 	343
f 511 	508 	524
f 511 	524 	525
f 379 	380 	258
f 379 	258 	255
f 481 	133 	421
f 217 	523 	480
f 342 	36 	443
f 278 	443 	36
f 117 	358 	362
f 117 	362 	118
f 410 	400 	449
f 414 	410 	449
f 513 	511 	525
f 513 	525 	8
f 166 	275 	455
f 482 	217 	480
f 142 	424 	421
f 142 	421 	133
f 457 	170 	455
f 166 	455 	170
f 91 	526 	56
f 514 	513 	8
f 514 	8 	7
f 446 	447 	466
f 459 	170 	457
f 126 	118 	363
f 362 	363 	118
f 485 	214 	482
f 180 	459 	461
f 385 	376 	447
f 400 	399 	448
f 186 	180 	461
f 186 	461 	462
f 516 	514 	7
f 516 	7 	9
f 100 	527 	526
f 424 	142 	427
f 144 	427 	142
f 489 	210 	485
f 186 	462 	389
f 126 	363 	364
f 376 	466 	447
f 518 	516 	9
f 518 	9 	24
f 198 	12 	467
f 528 	527 	100
f 395 	385 	447
f 469 	203 	467
f 198 	467 	203
f 148 	429 	427
f 148 	427 	144
f 495 	206 	492
f 492 	208 	489
f 215 	203 	469
f 215 	469 	471
f 134 	364 	375
f 398 	395 	447
f 452 	486 	415
f 471 	472 	215
f 219 	215 	472
f 24 	464 	518
f 237 	518 	464
f 504 	238 	495
f 429 	148 	432
f 165 	432 	148
f 447 	448 	398
f 467 	435 	469
f 474 	219 	472
f 505 	235 	504
f 378 	139 	375
f 134 	375 	139
f 55 	477 	382
f 399 	398 	448
f 509 	233 	505
f 172 	433 	432
f 172 	432 	165
f 68 	480 	55
f 477 	55 	480
f 259 	479 	483
f 531 	530 	135
f 416 	264 	139
f 484 	259 	483
f 433 	172 	435
f 178 	435 	172
f 73 	482 	68
f 480 	68 	482
f 135 	141 	531
f 532 	531 	141
f 477 	480 	522
f 520 	477 	522
f 523 	522 	480
f 238 	504 	235
f 56 	230 	509
f 208 	492 	206
f 482 	73 	78
f 415 	479 	418
f 188 	437 	435
f 188 	435 	178
f 266 	484 	486
f 141 	143 	532
f 5 	532 	143
f 275 	486 	488
f 489 	78 	83
f 437 	188 	439
f 194 	439 	188
f 488 	455 	275
f 391 	472 	388
f 395 	472 	391
f 418 	472 	395
f 492 	489 	87
f 83 	87 	489
f 6 	5 	143
f 169 	386 	387
f 528 	110 	527
f 202 	445 	439
f 202 	439 	194
f 495 	492 	93
f 87 	93 	492
f 227 	526 	245
f 10 	6 	153
f 82 	169 	315
f 530 	102 	529
f 445 	202 	456
f 207 	456 	202
f 18 	10 	153
f 531 	101 	530
f 527 	245 	526
f 387 	315 	169
f 218 	460 	456
f 218 	456 	207
f 532 	13 	531
f 234 	505 	233
f 429 	12 	427
f 427 	12 	424
f 432 	467 	429
f 433 	467 	432
f 435 	467 	433
f 437 	469 	435
f 424 	12 	421
f 445 	469 	439
f 456 	471 	445
f 460 	471 	456
f 381 	471 	460
f 388 	472 	381
f 439 	469 	437
f 421 	12 	374
f 5 	30 	532
f 529 	109 	528
f 86 	82 	321
f 315 	321 	82
f 24 	499 	464
f 35 	28 	173
f 503 	464 	501
f 503 	446 	466
f 464 	503 	466
f 325 	92 	321
f 86 	321 	92
f 173 	177 	35
f 46 	35 	177
f 242 	237 	464
f 242 	464 	466
f 11 	242 	466
f 330 	97 	325
f 524 	508 	177
f 509 	191 	56
f 288 	294 	337
f 294 	307 	344
f 344 	337 	294
f 357 	344 	307
f 307 	316 	357
f 316 	324 	357
f 324 	329 	357
f 12 	357 	329
f 335 	12 	329
f 340 	12 	335
f 359 	12 	340
f 374 	12 	359
f 267 	277 	327
f 382 	71 	55
f 191 	91 	56
f 24 	9 	497
f 499 	24 	497
f 501 	464 	499
f 494 	497 	9
f 81 	506 	79
f 245 	111 	223
f 79 	38 	177
f 111 	110 	224
f 111 	224 	223
f 38 	39 	177
f 109 	225 	224
f 109 	224 	110
f 104 	226 	225
f 104 	225 	109
f 102 	228 	226
f 102 	226 	104
f 101 	231 	228
f 101 	228 	102
f 17 	15 	231
f 17 	231 	101
# 1068 faces

 #end of obj_0

