%YAML 1.1
%TAG !u! tag:unity3d.com,2011:
--- !u!29 &1
OcclusionCullingSettings:
  m_ObjectHideFlags: 0
  serializedVersion: 2
  m_OcclusionBakeSettings:
    smallestOccluder: 5
    smallestHole: 0.25
    backfaceThreshold: 100
  m_SceneGUID: 00000000000000000000000000000000
  m_OcclusionCullingData: {fileID: 0}
--- !u!104 &2
RenderSettings:
  m_ObjectHideFlags: 0
  serializedVersion: 9
  m_Fog: 0
  m_FogColor: {r: 0.5, g: 0.5, b: 0.5, a: 1}
  m_FogMode: 3
  m_FogDensity: 0.01
  m_LinearFogStart: 0
  m_LinearFogEnd: 300
  m_AmbientSkyColor: {r: 0.212, g: 0.227, b: 0.259, a: 1}
  m_AmbientEquatorColor: {r: 0.114, g: 0.125, b: 0.133, a: 1}
  m_AmbientGroundColor: {r: 0.047, g: 0.043, b: 0.035, a: 1}
  m_AmbientIntensity: 8
  m_AmbientMode: 0
  m_SubtractiveShadowColor: {r: 0.42, g: 0.478, b: 0.627, a: 1}
  m_SkyboxMaterial: {fileID: 2100000, guid: 2d056ac30ecc9e542b26e06133f23602, type: 2}
  m_HaloStrength: 0.5
  m_FlareStrength: 1
  m_FlareFadeSpeed: 3
  m_HaloTexture: {fileID: 0}
  m_SpotCookie: {fileID: 10001, guid: 0000000000000000e000000000000000, type: 0}
  m_DefaultReflectionMode: 0
  m_DefaultReflectionResolution: 128
  m_ReflectionBounces: 1
  m_ReflectionIntensity: 1
  m_CustomReflection: {fileID: 0}
  m_Sun: {fileID: 0}
  m_IndirectSpecularColor: {r: 0.016090982, g: 0.01466979, b: 0.013826404, a: 1}
  m_UseRadianceAmbientProbe: 0
--- !u!157 &3
LightmapSettings:
  m_ObjectHideFlags: 0
  serializedVersion: 11
  m_GIWorkflowMode: 0
  m_GISettings:
    serializedVersion: 2
    m_BounceScale: 1
    m_IndirectOutputScale: 1
    m_AlbedoBoost: 1
    m_EnvironmentLightingMode: 0
    m_EnableBakedLightmaps: 1
    m_EnableRealtimeLightmaps: 0
  m_LightmapEditorSettings:
    serializedVersion: 12
    m_Resolution: 2
    m_BakeResolution: 10
    m_AtlasSize: 512
    m_AO: 0
    m_AOMaxDistance: 1
    m_CompAOExponent: 1
    m_CompAOExponentDirect: 0
    m_ExtractAmbientOcclusion: 0
    m_Padding: 2
    m_LightmapParameters: {fileID: 0}
    m_LightmapsBakeMode: 1
    m_TextureCompression: 1
    m_FinalGather: 0
    m_FinalGatherFiltering: 1
    m_FinalGatherRayCount: 256
    m_ReflectionCompression: 2
    m_MixedBakeMode: 2
    m_BakeBackend: 1
    m_PVRSampling: 1
    m_PVRDirectSampleCount: 32
    m_PVRSampleCount: 256
    m_PVRBounces: 2
    m_PVREnvironmentSampleCount: 256
    m_PVREnvironmentReferencePointCount: 2048
    m_PVRFilteringMode: 2
    m_PVRDenoiserTypeDirect: 0
    m_PVRDenoiserTypeIndirect: 0
    m_PVRDenoiserTypeAO: 0
    m_PVRFilterTypeDirect: 0
    m_PVRFilterTypeIndirect: 0
    m_PVRFilterTypeAO: 0
    m_PVREnvironmentMIS: 0
    m_PVRCulling: 1
    m_PVRFilteringGaussRadiusDirect: 1
    m_PVRFilteringGaussRadiusIndirect: 5
    m_PVRFilteringGaussRadiusAO: 2
    m_PVRFilteringAtrousPositionSigmaDirect: 0.5
    m_PVRFilteringAtrousPositionSigmaIndirect: 2
    m_PVRFilteringAtrousPositionSigmaAO: 1
    m_ExportTrainingData: 0
    m_TrainingDataDestination: TrainingData
    m_LightProbeSampleCountMultiplier: 4
  m_LightingDataAsset: {fileID: 0}
  m_UseShadowmask: 1
--- !u!196 &4
NavMeshSettings:
  serializedVersion: 2
  m_ObjectHideFlags: 0
  m_BuildSettings:
    serializedVersion: 2
    agentTypeID: 0
    agentRadius: 0.5
    agentHeight: 2
    agentSlope: 45
    agentClimb: 0.4
    ledgeDropHeight: 0
    maxJumpAcrossDistance: 0
    minRegionArea: 2
    manualCellSize: 0
    cellSize: 0.16666667
    manualTileSize: 0
    tileSize: 256
    accuratePlacement: 0
    debug:
      m_Flags: 0
  m_NavMeshData: {fileID: 0}
--- !u!1001 &1278555053
PrefabInstance:
  m_ObjectHideFlags: 0
  serializedVersion: 2
  m_Modification:
    m_TransformParent: {fileID: 0}
    m_Modifications:
    - target: {fileID: 1414402924287894, guid: 651a59f7572ecec4093337240a976ff1, type: 3}
      propertyPath: m_Name
      value: Directional Light
      objectReference: {fileID: 0}
    - target: {fileID: 4720863894126692, guid: 651a59f7572ecec4093337240a976ff1, type: 3}
      propertyPath: m_LocalPosition.x
      value: 0
      objectReference: {fileID: 0}
    - target: {fileID: 4720863894126692, guid: 651a59f7572ecec4093337240a976ff1, type: 3}
      propertyPath: m_LocalPosition.y
      value: 3
      objectReference: {fileID: 0}
    - target: {fileID: 4720863894126692, guid: 651a59f7572ecec4093337240a976ff1, type: 3}
      propertyPath: m_LocalPosition.z
      value: 0
      objectReference: {fileID: 0}
    - target: {fileID: 4720863894126692, guid: 651a59f7572ecec4093337240a976ff1, type: 3}
      propertyPath: m_LocalRotation.x
      value: 0.7071068
      objectReference: {fileID: 0}
    - target: {fileID: 4720863894126692, guid: 651a59f7572ecec4093337240a976ff1, type: 3}
      propertyPath: m_LocalRotation.y
      value: 0
      objectReference: {fileID: 0}
    - target: {fileID: 4720863894126692, guid: 651a59f7572ecec4093337240a976ff1, type: 3}
      propertyPath: m_LocalRotation.z
      value: 0
      objectReference: {fileID: 0}
    - target: {fileID: 4720863894126692, guid: 651a59f7572ecec4093337240a976ff1, type: 3}
      propertyPath: m_LocalRotation.w
      value: 0.7071068
      objectReference: {fileID: 0}
    - target: {fileID: 4720863894126692, guid: 651a59f7572ecec4093337240a976ff1, type: 3}
      propertyPath: m_RootOrder
      value: 2
      objectReference: {fileID: 0}
    - target: {fileID: 4720863894126692, guid: 651a59f7572ecec4093337240a976ff1, type: 3}
      propertyPath: m_LocalEulerAnglesHint.x
      value: 90
      objectReference: {fileID: 0}
    - target: {fileID: 4720863894126692, guid: 651a59f7572ecec4093337240a976ff1, type: 3}
      propertyPath: m_LocalEulerAnglesHint.y
      value: 0
      objectReference: {fileID: 0}
    - target: {fileID: 4720863894126692, guid: 651a59f7572ecec4093337240a976ff1, type: 3}
      propertyPath: m_LocalEulerAnglesHint.z
      value: 0
      objectReference: {fileID: 0}
    m_RemovedComponents: []
  m_SourcePrefab: {fileID: 100100000, guid: 651a59f7572ecec4093337240a976ff1, type: 3}
--- !u!1001 &1527217250
PrefabInstance:
  m_ObjectHideFlags: 0
  serializedVersion: 2
  m_Modification:
    m_TransformParent: {fileID: 0}
    m_Modifications:
    - target: {fileID: 1147752367711628, guid: 2abf19653d633114faedf3b60dc6c39f, type: 3}
      propertyPath: m_Name
      value: Player
      objectReference: {fileID: 0}
    - target: {fileID: 4268597916284530, guid: 2abf19653d633114faedf3b60dc6c39f, type: 3}
      propertyPath: m_LocalPosition.x
      value: 0
      objectReference: {fileID: 0}
    - target: {fileID: 4268597916284530, guid: 2abf19653d633114faedf3b60dc6c39f, type: 3}
      propertyPath: m_LocalPosition.y
      value: 0.55
      objectReference: {fileID: 0}
    - target: {fileID: 4268597916284530, guid: 2abf19653d633114faedf3b60dc6c39f, type: 3}
      propertyPath: m_LocalPosition.z
      value: 0
      objectReference: {fileID: 0}
    - target: {fileID: 4268597916284530, guid: 2abf19653d633114faedf3b60dc6c39f, type: 3}
      propertyPath: m_LocalRotation.x
      value: 0
      objectReference: {fileID: 0}
    - target: {fileID: 4268597916284530, guid: 2abf19653d633114faedf3b60dc6c39f, type: 3}
      propertyPath: m_LocalRotation.y
      value: 0.7071068
      objectReference: {fileID: 0}
    - target: {fileID: 4268597916284530, guid: 2abf19653d633114faedf3b60dc6c39f, type: 3}
      propertyPath: m_LocalRotation.z
      value: 0
      objectReference: {fileID: 0}
    - target: {fileID: 4268597916284530, guid: 2abf19653d633114faedf3b60dc6c39f, type: 3}
      propertyPath: m_LocalRotation.w
      value: 0.7071068
      objectReference: {fileID: 0}
    - target: {fileID: 4268597916284530, guid: 2abf19653d633114faedf3b60dc6c39f, type: 3}
      propertyPath: m_RootOrder
      value: 1
      objectReference: {fileID: 0}
    - target: {fileID: 4268597916284530, guid: 2abf19653d633114faedf3b60dc6c39f, type: 3}
      propertyPath: m_LocalEulerAnglesHint.x
      value: 0
      objectReference: {fileID: 0}
    - target: {fileID: 4268597916284530, guid: 2abf19653d633114faedf3b60dc6c39f, type: 3}
      propertyPath: m_LocalEulerAnglesHint.y
      value: 90
      objectReference: {fileID: 0}
    - target: {fileID: 4268597916284530, guid: 2abf19653d633114faedf3b60dc6c39f, type: 3}
      propertyPath: m_LocalEulerAnglesHint.z
      value: 0
      objectReference: {fileID: 0}
    m_RemovedComponents: []
  m_SourcePrefab: {fileID: 100100000, guid: 2abf19653d633114faedf3b60dc6c39f, type: 3}
--- !u!114 &1527217251 stripped
MonoBehaviour:
  m_CorrespondingSourceObject: {fileID: 1527217252, guid: 2abf19653d633114faedf3b60dc6c39f,
    type: 3}
  m_PrefabInstance: {fileID: 1527217250}
  m_PrefabAsset: {fileID: 0}
  m_GameObject: {fileID: 0}
  m_Enabled: 1
  m_EditorHideFlags: 0
  m_Script: {fileID: 11500000, guid: 33d7d1be558f5904490b733390713940, type: 3}
  m_Name: 
  m_EditorClassIdentifier: 
--- !u!1001 &1715125987
PrefabInstance:
  m_ObjectHideFlags: 0
  serializedVersion: 2
  m_Modification:
    m_TransformParent: {fileID: 0}
    m_Modifications:
    - target: {fileID: 4444679457742563176, guid: 1ec3160a725ce7a40b89c81e9cccf7b9,
        type: 3}
      propertyPath: m_LocalPosition.x
      value: 0
      objectReference: {fileID: 0}
    - target: {fileID: 4444679457742563176, guid: 1ec3160a725ce7a40b89c81e9cccf7b9,
        type: 3}
      propertyPath: m_LocalPosition.y
      value: 0
      objectReference: {fileID: 0}
    - target: {fileID: 4444679457742563176, guid: 1ec3160a725ce7a40b89c81e9cccf7b9,
        type: 3}
      propertyPath: m_LocalPosition.z
      value: 0
      objectReference: {fileID: 0}
    - target: {fileID: 4444679457742563176, guid: 1ec3160a725ce7a40b89c81e9cccf7b9,
        type: 3}
      propertyPath: m_LocalRotation.x
      value: 0
      objectReference: {fileID: 0}
    - target: {fileID: 4444679457742563176, guid: 1ec3160a725ce7a40b89c81e9cccf7b9,
        type: 3}
      propertyPath: m_LocalRotation.y
      value: 0
      objectReference: {fileID: 0}
    - target: {fileID: 4444679457742563176, guid: 1ec3160a725ce7a40b89c81e9cccf7b9,
        type: 3}
      propertyPath: m_LocalRotation.z
      value: 0
      objectReference: {fileID: 0}
    - target: {fileID: 4444679457742563176, guid: 1ec3160a725ce7a40b89c81e9cccf7b9,
        type: 3}
      propertyPath: m_LocalRotation.w
      value: 1
      objectReference: {fileID: 0}
    - target: {fileID: 4444679457742563176, guid: 1ec3160a725ce7a40b89c81e9cccf7b9,
        type: 3}
      propertyPath: m_RootOrder
      value: 5
      objectReference: {fileID: 0}
    - target: {fileID: 4444679457742563176, guid: 1ec3160a725ce7a40b89c81e9cccf7b9,
        type: 3}
      propertyPath: m_LocalEulerAnglesHint.x
      value: 0
      objectReference: {fileID: 0}
    - target: {fileID: 4444679457742563176, guid: 1ec3160a725ce7a40b89c81e9cccf7b9,
        type: 3}
      propertyPath: m_LocalEulerAnglesHint.y
      value: 0
      objectReference: {fileID: 0}
    - target: {fileID: 4444679457742563176, guid: 1ec3160a725ce7a40b89c81e9cccf7b9,
        type: 3}
      propertyPath: m_LocalEulerAnglesHint.z
      value: 0
      objectReference: {fileID: 0}
    - target: {fileID: 4444679457742563179, guid: 1ec3160a725ce7a40b89c81e9cccf7b9,
        type: 3}
      propertyPath: m_Name
      value: Level1
      objectReference: {fileID: 0}
    m_RemovedComponents: []
  m_SourcePrefab: {fileID: 100100000, guid: 1ec3160a725ce7a40b89c81e9cccf7b9, type: 3}
--- !u!1001 &2092632904
PrefabInstance:
  m_ObjectHideFlags: 0
  serializedVersion: 2
  m_Modification:
    m_TransformParent: {fileID: 0}
    m_Modifications:
    - target: {fileID: 1686549357188596, guid: 99334f0ccf1fe4045b0f8effd19d04ab, type: 3}
      propertyPath: m_Name
      value: WinObject
      objectReference: {fileID: 0}
    - target: {fileID: 4009622033390832, guid: 99334f0ccf1fe4045b0f8effd19d04ab, type: 3}
      propertyPath: m_LocalPosition.x
      value: 4
      objectReference: {fileID: 0}
    - target: {fileID: 4009622033390832, guid: 99334f0ccf1fe4045b0f8effd19d04ab, type: 3}
      propertyPath: m_LocalPosition.y
      value: 1.2
      objectReference: {fileID: 0}
    - target: {fileID: 4009622033390832, guid: 99334f0ccf1fe4045b0f8effd19d04ab, type: 3}
      propertyPath: m_LocalPosition.z
      value: 2
      objectReference: {fileID: 0}
    - target: {fileID: 4009622033390832, guid: 99334f0ccf1fe4045b0f8effd19d04ab, type: 3}
      propertyPath: m_LocalRotation.x
      value: 0.5
      objectReference: {fileID: 0}
    - target: {fileID: 4009622033390832, guid: 99334f0ccf1fe4045b0f8effd19d04ab, type: 3}
      propertyPath: m_LocalRotation.y
      value: 0.5
      objectReference: {fileID: 0}
    - target: {fileID: 4009622033390832, guid: 99334f0ccf1fe4045b0f8effd19d04ab, type: 3}
      propertyPath: m_LocalRotation.z
      value: 0.5
      objectReference: {fileID: 0}
    - target: {fileID: 4009622033390832, guid: 99334f0ccf1fe4045b0f8effd19d04ab, type: 3}
      propertyPath: m_LocalRotation.w
      value: -0.5
      objectReference: {fileID: 0}
    - target: {fileID: 4009622033390832, guid: 99334f0ccf1fe4045b0f8effd19d04ab, type: 3}
      propertyPath: m_RootOrder
      value: 0
      objectReference: {fileID: 0}
    - target: {fileID: 4009622033390832, guid: 99334f0ccf1fe4045b0f8effd19d04ab, type: 3}
      propertyPath: m_LocalEulerAnglesHint.x
      value: -90
      objectReference: {fileID: 0}
    - target: {fileID: 4009622033390832, guid: 99334f0ccf1fe4045b0f8effd19d04ab, type: 3}
      propertyPath: m_LocalEulerAnglesHint.y
      value: 270
      objectReference: {fileID: 0}
    - target: {fileID: 4009622033390832, guid: 99334f0ccf1fe4045b0f8effd19d04ab, type: 3}
      propertyPath: m_LocalEulerAnglesHint.z
      value: 0
      objectReference: {fileID: 0}
    m_RemovedComponents: []
  m_SourcePrefab: {fileID: 100100000, guid: 99334f0ccf1fe4045b0f8effd19d04ab, type: 3}
--- !u!1001 &3231641995398378480
PrefabInstance:
  m_ObjectHideFlags: 0
  serializedVersion: 2
  m_Modification:
    m_TransformParent: {fileID: 0}
    m_Modifications:
    - target: {fileID: 3231641994419765884, guid: cf3beffe578e9934c86d2cd87f1e1657,
        type: 3}
      propertyPath: m_Name
      value: LevelCamera
      objectReference: {fileID: 0}
    - target: {fileID: 3231641994419765887, guid: cf3beffe578e9934c86d2cd87f1e1657,
        type: 3}
      propertyPath: m_LocalPosition.x
      value: 0
      objectReference: {fileID: 0}
    - target: {fileID: 3231641994419765887, guid: cf3beffe578e9934c86d2cd87f1e1657,
        type: 3}
      propertyPath: m_LocalPosition.y
      value: 5
      objectReference: {fileID: 0}
    - target: {fileID: 3231641994419765887, guid: cf3beffe578e9934c86d2cd87f1e1657,
        type: 3}
      propertyPath: m_LocalPosition.z
      value: -5
      objectReference: {fileID: 0}
    - target: {fileID: 3231641994419765887, guid: cf3beffe578e9934c86d2cd87f1e1657,
        type: 3}
      propertyPath: m_LocalRotation.x
      value: 0.38268346
      objectReference: {fileID: 0}
    - target: {fileID: 3231641994419765887, guid: cf3beffe578e9934c86d2cd87f1e1657,
        type: 3}
      propertyPath: m_LocalRotation.y
      value: -0
      objectReference: {fileID: 0}
    - target: {fileID: 3231641994419765887, guid: cf3beffe578e9934c86d2cd87f1e1657,
        type: 3}
      propertyPath: m_LocalRotation.z
      value: -0
      objectReference: {fileID: 0}
    - target: {fileID: 3231641994419765887, guid: cf3beffe578e9934c86d2cd87f1e1657,
        type: 3}
      propertyPath: m_LocalRotation.w
      value: 0.9238796
      objectReference: {fileID: 0}
    - target: {fileID: 3231641994419765887, guid: cf3beffe578e9934c86d2cd87f1e1657,
        type: 3}
      propertyPath: m_RootOrder
      value: 4
      objectReference: {fileID: 0}
    - target: {fileID: 3231641994419765887, guid: cf3beffe578e9934c86d2cd87f1e1657,
        type: 3}
      propertyPath: m_LocalEulerAnglesHint.x
      value: 45
      objectReference: {fileID: 0}
    - target: {fileID: 3231641994419765887, guid: cf3beffe578e9934c86d2cd87f1e1657,
        type: 3}
      propertyPath: m_LocalEulerAnglesHint.y
      value: -90
      objectReference: {fileID: 0}
    - target: {fileID: 3231641994419765887, guid: cf3beffe578e9934c86d2cd87f1e1657,
        type: 3}
      propertyPath: m_LocalEulerAnglesHint.z
      value: 0
      objectReference: {fileID: 0}
    m_RemovedComponents: []
  m_SourcePrefab: {fileID: 100100000, guid: cf3beffe578e9934c86d2cd87f1e1657, type: 3}
--- !u!114 &3231641995398378481 stripped
MonoBehaviour:
  m_CorrespondingSourceObject: {fileID: 3231641994419765856, guid: cf3beffe578e9934c86d2cd87f1e1657,
    type: 3}
  m_PrefabInstance: {fileID: 3231641995398378480}
  m_PrefabAsset: {fileID: 0}
  m_GameObject: {fileID: 0}
  m_Enabled: 1
  m_EditorHideFlags: 0
  m_Script: {fileID: 11500000, guid: a419ed70ce6a8dc4db83514381dcfd4c, type: 3}
  m_Name: 
  m_EditorClassIdentifier: 
--- !u!1001 &3419307050684760956
PrefabInstance:
  m_ObjectHideFlags: 0
  serializedVersion: 2
  m_Modification:
    m_TransformParent: {fileID: 0}
    m_Modifications:
    - target: {fileID: 3419307050684760953, guid: cf6990341251d5d4190711bb357c6a18,
        type: 3}
      propertyPath: m_OnClick.m_PersistentCalls.m_Calls.Array.data[0].m_Target
      value: 
      objectReference: {fileID: 1527217251}
    - target: {fileID: 3539422307477521014, guid: cf6990341251d5d4190711bb357c6a18,
        type: 3}
      propertyPath: m_SizeDelta.x
      value: 125
      objectReference: {fileID: 0}
    - target: {fileID: 3539422307477521014, guid: cf6990341251d5d4190711bb357c6a18,
        type: 3}
      propertyPath: m_SizeDelta.y
      value: 125
      objectReference: {fileID: 0}
    - target: {fileID: 6797749594152864480, guid: cf6990341251d5d4190711bb357c6a18,
        type: 3}
      propertyPath: m_SizeDelta.x
      value: 125
      objectReference: {fileID: 0}
    - target: {fileID: 6797749594152864480, guid: cf6990341251d5d4190711bb357c6a18,
        type: 3}
      propertyPath: m_SizeDelta.y
      value: 125
      objectReference: {fileID: 0}
    - target: {fileID: 7560907805961686990, guid: cf6990341251d5d4190711bb357c6a18,
        type: 3}
      propertyPath: m_OnClick.m_PersistentCalls.m_Calls.Array.data[0].m_Target
      value: 
      objectReference: {fileID: 3231641995398378481}
    - target: {fileID: 8156813086521187102, guid: cf6990341251d5d4190711bb357c6a18,
        type: 3}
      propertyPath: m_Name
      value: GameCanvas
      objectReference: {fileID: 0}
    - target: {fileID: 8226711332548246786, guid: cf6990341251d5d4190711bb357c6a18,
        type: 3}
      propertyPath: m_LocalPosition.x
      value: 0
      objectReference: {fileID: 0}
    - target: {fileID: 8226711332548246786, guid: cf6990341251d5d4190711bb357c6a18,
        type: 3}
      propertyPath: m_LocalPosition.y
      value: 0
      objectReference: {fileID: 0}
    - target: {fileID: 8226711332548246786, guid: cf6990341251d5d4190711bb357c6a18,
        type: 3}
      propertyPath: m_LocalPosition.z
      value: 0
      objectReference: {fileID: 0}
    - target: {fileID: 8226711332548246786, guid: cf6990341251d5d4190711bb357c6a18,
        type: 3}
      propertyPath: m_LocalRotation.x
      value: 0
      objectReference: {fileID: 0}
    - target: {fileID: 8226711332548246786, guid: cf6990341251d5d4190711bb357c6a18,
        type: 3}
      propertyPath: m_LocalRotation.y
      value: 0
      objectReference: {fileID: 0}
    - target: {fileID: 8226711332548246786, guid: cf6990341251d5d4190711bb357c6a18,
        type: 3}
      propertyPath: m_LocalRotation.z
      value: 0
      objectReference: {fileID: 0}
    - target: {fileID: 8226711332548246786, guid: cf6990341251d5d4190711bb357c6a18,
        type: 3}
      propertyPath: m_LocalRotation.w
      value: 1
      objectReference: {fileID: 0}
    - target: {fileID: 8226711332548246786, guid: cf6990341251d5d4190711bb357c6a18,
        type: 3}
      propertyPath: m_RootOrder
      value: 3
      objectReference: {fileID: 0}
    - target: {fileID: 8226711332548246786, guid: cf6990341251d5d4190711bb357c6a18,
        type: 3}
      propertyPath: m_LocalEulerAnglesHint.x
      value: 0
      objectReference: {fileID: 0}
    - target: {fileID: 8226711332548246786, guid: cf6990341251d5d4190711bb357c6a18,
        type: 3}
      propertyPath: m_LocalEulerAnglesHint.y
      value: 0
      objectReference: {fileID: 0}
    - target: {fileID: 8226711332548246786, guid: cf6990341251d5d4190711bb357c6a18,
        type: 3}
      propertyPath: m_LocalEulerAnglesHint.z
      value: 0
      objectReference: {fileID: 0}
    - target: {fileID: 8226711332548246786, guid: cf6990341251d5d4190711bb357c6a18,
        type: 3}
      propertyPath: m_AnchoredPosition.x
      value: 0
      objectReference: {fileID: 0}
    - target: {fileID: 8226711332548246786, guid: cf6990341251d5d4190711bb357c6a18,
        type: 3}
      propertyPath: m_AnchoredPosition.y
      value: 0
      objectReference: {fileID: 0}
    - target: {fileID: 8226711332548246786, guid: cf6990341251d5d4190711bb357c6a18,
        type: 3}
      propertyPath: m_SizeDelta.x
      value: 0
      objectReference: {fileID: 0}
    - target: {fileID: 8226711332548246786, guid: cf6990341251d5d4190711bb357c6a18,
        type: 3}
      propertyPath: m_SizeDelta.y
      value: 0
      objectReference: {fileID: 0}
    - target: {fileID: 8226711332548246786, guid: cf6990341251d5d4190711bb357c6a18,
        type: 3}
      propertyPath: m_AnchorMin.x
      value: 0
      objectReference: {fileID: 0}
    - target: {fileID: 8226711332548246786, guid: cf6990341251d5d4190711bb357c6a18,
        type: 3}
      propertyPath: m_AnchorMin.y
      value: 0
      objectReference: {fileID: 0}
    - target: {fileID: 8226711332548246786, guid: cf6990341251d5d4190711bb357c6a18,
        type: 3}
      propertyPath: m_AnchorMax.x
      value: 0
      objectReference: {fileID: 0}
    - target: {fileID: 8226711332548246786, guid: cf6990341251d5d4190711bb357c6a18,
        type: 3}
      propertyPath: m_AnchorMax.y
      value: 0
      objectReference: {fileID: 0}
    - target: {fileID: 8226711332548246786, guid: cf6990341251d5d4190711bb357c6a18,
        type: 3}
      propertyPath: m_Pivot.x
      value: 0
      objectReference: {fileID: 0}
    - target: {fileID: 8226711332548246786, guid: cf6990341251d5d4190711bb357c6a18,
        type: 3}
      propertyPath: m_Pivot.y
      value: 0
      objectReference: {fileID: 0}
    - target: {fileID: 8957587987465964215, guid: cf6990341251d5d4190711bb357c6a18,
        type: 3}
      propertyPath: m_OnClick.m_PersistentCalls.m_Calls.Array.data[0].m_Target
      value: 
      objectReference: {fileID: 3231641995398378481}
    m_RemovedComponents: []
  m_SourcePrefab: {fileID: 100100000, guid: cf6990341251d5d4190711bb357c6a18, type: 3}
